Place,Name,State,WeightClassKg,BodyweightKg,Age,Best3SquatKg,Best3BenchKg,Best3DeadliftKg,TotalKg,Sex,Division,Equipment,Event
1,Meagan Kania,OK,56,55.60,26,80.00,42.50,110.00,232.50,F,Open,Raw,SBD
DQ,Susanne Kimball,OK,67.5,64.60,32,-80.00,47.50,102.50,,F,Open,Raw,SBD
1,Kara Marks,OK,75,71.60,25,95.00,52.50,122.50,270.00,F,Open,Raw,SBD
DQ,Nancy Honeysuckle,OK,75,74.00,27,137.50,-72.50,,,F,Open,Raw,SBD
1,Amy Ford,OK,90+,108.60,47,110.00,65.00,117.50,292.50,F,Masters 45-49,Raw,SBD
1,Ryan Kropp,OK,75,73.00,23,197.50,125.00,225.00,547.50,M,Juniors 20-23,Raw,SBD
1,Noor Seeker Samara,OK,140,137.00,14,185.00,150.00,170.00,505.00,M,Juniors 13-15,Raw,SBD
1,Ryan Kropp,OK,75,73.00,23,197.50,125.00,225.00,547.50,M,Open,Raw,SBD
1,Blake Horton,OK,90,89.20,25,205.00,142.50,230.00,577.50,M,Open,Raw,SBD
1,Sheridan Wilks,OK,100,99.00,26,285.00,217.50,285.00,787.50,M,Open,Raw,SBD
2,Sajid Khan,OK,100,97.00,26,190.00,132.50,242.50,565.00,M,Open,Raw,SBD
1,Jessa Weekley,OK,75,73.40,25,140.00,77.50,155.00,372.50,F,Open,Wraps,SBD
1,Kiaya Carpenter,OK,90+,107.00,27,160.00,87.50,150.00,397.50,F,Open,Wraps,SBD
1,Chris Blanton,TX,110,109.20,33,207.50,150.00,240.00,597.50,M,Open,Wraps,SBD
2,Eric Adams #2,OK,110,103.60,26,197.50,145.00,230.00,572.50,M,Open,Wraps,SBD
1,Darrell Cooley,OK,140,138.00,34,227.50,150.00,235.00,612.50,M,Open,Wraps,SBD
DQ,Tristan Solo,OK,90,89.80,36,245.00,125.00,-142.50,,M,Submasters 35-39,Wraps,SBD
1,Susanne Kimball,OK,67.5,64.60,32,,47.50,,47.50,F,Open,Raw,B
1,Noor Seeker Samara,OK,140,137.00,14,,150.00,,150.00,M,Juniors 13-15,Raw,B
DQ,Chad Ake,OK,67.5,66.40,43,,-115.00,,,M,Open,Raw,B
1,Stan Hobbs,AR,90,88.00,46,,187.50,,187.50,M,Open,Raw,B
DQ,Chad Ake,OK,67.5,66.40,43,,-115.00,,,M,Masters 40-44,Raw,B
1,Stan Hobbs,AR,90,88.00,46,,187.50,,187.50,M,Masters 45-49,Raw,B
2,Jason Smith,OK,90,90.00,46,,150.00,,150.00,M,Masters 45-49,Raw,B
1,Susanne Kimball,OK,67.5,64.60,32,,,102.50,102.50,F,Open,Raw,D
1,Nancy Honeysuckle,OK,75,74.00,27,,,157.50,157.50,F,Open,Raw,D
1,Jason Smith,OK,90,90.00,46,,,255.50,255.50,M,Masters 45-49,Raw,D
