Division,WeightClassKg,Place,Name,Team,BodyweightKg,Best3SquatKg,Best3BenchKg,Best3DeadliftKg,TotalKg,Equipment,Event,Sex
Boys,51.71,1,Chris Martichuski,Perrin-Whitt,49.94,117.93,68.04,104.33,290.3,Single-ply,SBD,M
Boys,51.71,2,Nick De Leon,Lake Worth,48.81,106.59,63.5,115.67,285.76,Single-ply,SBD,M
Boys,51.71,3,Armando Alvarado,Castleberry,49.35,102.06,54.43,111.13,267.62,Single-ply,SBD,M
Boys,51.71,4,Devin Brinkley,Muenster,51.07,92.99,43.09,95.25,231.33,Single-ply,SBD,M
Boys,51.71,5,Jeremy Hibler,Justin Northwest,51.35,83.91,47.63,88.45,219.99,Single-ply,SBD,M
Boys,51.71,6,Zach Tucker,Perrin-Whitt,45.81,90.72,47.63,72.57,210.92,Single-ply,SBD,M
Boys,55.79,1,Daniel Salinas,Chico,52.71,136.08,72.57,154.22,362.87,Single-ply,SBD,M
Boys,55.79,2,Armando Salinas,Chico,53.98,136.08,68.04,147.42,351.53,Single-ply,SBD,M
Boys,55.79,3,Josh Vandygrift,Godley,55.43,127.01,61.23,124.74,312.98,Single-ply,SBD,M
Boys,55.79,4,Keith Ray,Stephenville,54.79,124.74,61.23,115.67,301.64,Single-ply,SBD,M
Boys,55.79,5,Kade Weldon,Jacksboro,54.88,106.59,58.97,122.47,288.03,Single-ply,SBD,M
Boys,67.13,1,Zack Montgomery,Jacksboro,60.06,165.56,79.38,197.31,442.25,Single-ply,SBD,M
Boys,59.87,2,Jordan Whiteside,Peaster,56.7,142.88,90.72,147.42,381.02,Single-ply,SBD,M
Boys,67.13,3,Tinnin Smith,Jacksboro,60.1,133.81,95.25,147.42,376.48,Single-ply,SBD,M
Boys,59.87,4,Issiah Meening,Chico,59.6,149.69,86.18,136.08,371.95,Single-ply,SBD,M
Boys,59.87,5,Tommy Albright,Godley,59.51,138.35,72.57,138.35,349.27,Single-ply,SBD,M
Boys,59.87,6,Chase Akin,Perrin-Whitt,59.6,136.08,61.23,136.08,333.39,Single-ply,SBD,M
Boys,59.87,7,Jaime Padron,Millsap,58.51,108.86,70.31,133.81,312.98,Single-ply,SBD,M
Boys,59.87,8,Avery Rangel,Castleberry,56.79,102.06,61.23,129.27,292.57,Single-ply,SBD,M
Boys,59.87,9,Jansen Decker,Peaster,59.87,95.25,72.57,106.59,274.42,Single-ply,SBD,M
Boys,59.87,10,Aidan Sims,Perrin-Whitt,59.33,113.4,52.16,104.33,269.89,Single-ply,SBD,M
Boys,59.87,11,Chantz Cochran,Decatur,59.15,97.52,49.9,102.06,249.48,Single-ply,SBD,M
Boys,59.87,12,Alan Salazar,Mineral Wells,57.88,90.72,45.36,104.33,240.4,Single-ply,SBD,M
Boys,67.13,1,Kelton Dethloff,Paradise,65.77,226.8,117.93,210.92,555.65,Single-ply,SBD,M
Boys,67.13,2,Ivan Karabonoff,Peaster,65.5,188.24,102.06,188.24,478.54,Single-ply,SBD,M
Boys,67.13,3,Oscar Orozco,Castleberry,66.41,158.76,106.59,213.19,478.54,Single-ply,SBD,M
Boys,67.13,4,Brett Martin,Alvord,66.41,156.49,86.18,170.1,412.77,Single-ply,SBD,M
Boys,67.13,5,Ethan Balthrop,Castleberry,66.95,161.03,92.99,158.76,412.77,Single-ply,SBD,M
Boys,67.13,6,Joseph Musgrove,Justin Northwest,61.33,133.81,108.86,156.49,399.16,Single-ply,SBD,M
Boys,67.13,7,Grayson Cobb,Paradise,66.59,158.76,79.38,158.76,396.89,Single-ply,SBD,M
Boys,67.13,8,Shawn Burger,Millsap,66.77,131.54,74.84,138.35,344.73,Single-ply,SBD,M
Boys,74.84,9,Nate Latham,Chico,67.31,102.06,81.65,154.22,337.93,Single-ply,SBD,M
Boys,67.13,10,Miguel Guerra,Castleberry,61.87,106.59,61.23,149.69,317.51,Single-ply,SBD,M
Boys,67.13,11,Talon Sanders,Lake Worth,63.59,95.25,65.77,122.47,283.5,Single-ply,SBD,M
Boys,74.84,1,Alexander Scallion,Castleberry,74.57,242.67,145.15,242.67,630.49,Single-ply,SBD,M
Boys,74.84,2,Jesse Herd,Jacksboro,73.75,210.92,140.61,240.4,591.94,Single-ply,SBD,M
Boys,74.84,3,Bryan Ortiz,Castleberry,71.12,179.17,90.72,167.83,437.72,Single-ply,SBD,M
Boys,74.84,4,Dennis Ralon,Lake Worth,69.31,165.56,99.79,170.1,435.45,Single-ply,SBD,M
Boys,74.84,5,Darrion Riggs,Chico,70.49,163.29,106.59,158.76,428.64,Single-ply,SBD,M
Boys,74.84,6,Griffin Balthrop,Castleberry,74.66,156.49,95.25,172.37,424.11,Single-ply,SBD,M
Boys,74.84,7,Reed Lane,Stephenville,74.21,154.22,83.91,158.76,396.89,Single-ply,SBD,M
Boys,74.84,8,Colton Squires,Godley,68.76,142.88,92.99,158.76,394.63,Single-ply,SBD,M
Boys,74.84,9,Spencer Nunley,Perrin-Whitt,74.84,136.08,88.45,154.22,378.75,Single-ply,SBD,M
Boys,74.84,10,Matthew Ortiz,Castleberry,69.49,122.47,72.57,133.81,328.85,Single-ply,SBD,M
Boys,74.84,11,Tyler Martin,Perrin-Whitt,74.62,117.93,72.57,136.08,326.59,Single-ply,SBD,M
Boys,74.84,12,Steven Sampson,Decatur,71.67,117.93,70.31,120.2,308.44,Single-ply,SBD,M
Boys,74.84,13,Elias Sanchez,Stephenville,68.31,102.06,70.31,133.81,306.17,Single-ply,SBD,M
Boys,74.84,14,Dillon Daniel,Decatur,70.49,102.06,45.36,104.33,251.74,Single-ply,SBD,M
Boys,74.84,DQ,Brandon Guilkey,Peaster,70.22,81.65,,92.99,,Single-ply,SBD,M
Boys,74.84,DQ,Zane Kemp,Muenster,70.85,151.95,68.04,,,Single-ply,SBD,M
Boys,74.84,DQ,Kyle Klement,Muenster,74.39,142.88,,158.76,,Single-ply,SBD,M
Boys,82.1,1,Seth Rogers,Jacksboro,76.84,219.99,140.61,229.06,589.67,Single-ply,SBD,M
Boys,82.1,2,Jacob Parker,Justin Northwest,81.28,222.26,120.2,219.99,562.45,Single-ply,SBD,M
Boys,82.1,3,Dalton Bartel,Muenster,82.01,172.37,108.86,190.51,471.74,Single-ply,SBD,M
Boys,82.1,4,Nick Maddison,Peaster,78.02,195.04,106.59,167.83,469.47,Single-ply,SBD,M
Boys,82.1,5,Andrew Alegria,Lake Worth,79.2,167.83,95.25,181.44,444.52,Single-ply,SBD,M
Boys,82.1,6,Huriel Oviedo,Godley,79.65,154.22,104.33,170.1,428.64,Single-ply,SBD,M
Boys,82.1,7,Blake Martin,Alvord,81.92,161.03,72.57,165.56,399.16,Single-ply,SBD,M
Boys,89.81,8,Kody Wages,Millsap,82.28,131.54,102.06,165.56,399.16,Single-ply,SBD,M
Boys,82.1,9,Morgan Baker,Mineral Wells,75.48,129.27,106.59,140.61,376.48,Single-ply,SBD,M
Boys,82.1,10,Travis Vogel,Muenster,78.47,147.42,70.31,158.76,376.48,Single-ply,SBD,M
Boys,82.1,11,Colton Boyd,Justin Northwest,75.57,138.35,70.31,156.49,365.14,Single-ply,SBD,M
Boys,82.1,12,Jared Stone,Mineral Wells,80.2,131.54,72.57,154.22,358.34,Single-ply,SBD,M
Boys,82.1,13,Lucas Ramsey,Perrin-Whitt,82.1,149.69,74.84,113.4,337.93,Single-ply,SBD,M
Boys,82.1,14,Garrett Gonsalves,Millsap,76.38,113.4,68.04,120.2,301.64,Single-ply,SBD,M
Boys,82.1,15,Cole Hall,Perrin-Whitt,80.69,108.86,65.77,99.79,274.42,Single-ply,SBD,M
Boys,82.1,DQ,Danny Kettler,Millsap,80.92,138.35,,172.37,,Single-ply,SBD,M
Boys,89.81,1,Eric Maldonado,Castleberry,88.27,215.46,142.88,242.67,601.01,Single-ply,SBD,M
Boys,89.81,2,Taylor Edwards,Paradise,88.9,226.8,158.76,208.65,594.21,Single-ply,SBD,M
Boys,89.81,3,Garrett Ragsdale,Boyd,88.9,192.78,142.88,206.38,542.04,Single-ply,SBD,M
Boys,89.81,4,Duke Kicinski,Justin Northwest,89.45,192.78,115.67,229.06,537.51,Single-ply,SBD,M
Boys,89.81,5,Cameron Schulte,Boyd,87,185.97,102.06,195.04,483.08,Single-ply,SBD,M
Boys,89.81,6,Ross Penny,Justin Northwest,87.82,188.24,108.86,170.1,467.2,Single-ply,SBD,M
Boys,89.81,7,Sebastian Reyes,Justin Northwest,83.73,183.7,92.99,181.44,458.13,Single-ply,SBD,M
Boys,89.81,8,Austin Penny,Justin Northwest,83.01,181.44,97.52,158.76,437.72,Single-ply,SBD,M
Boys,89.81,9,Dalton Hess,Muenster,84.64,170.1,88.45,170.1,428.64,Single-ply,SBD,M
Boys,89.81,10,Dylan Esquivel,Godley,85.55,142.88,108.86,158.76,410.5,Single-ply,SBD,M
Boys,89.81,11,Collin Pagel,Muenster,88.09,151.95,95.25,161.03,408.23,Single-ply,SBD,M
Boys,89.81,12,Abraham Espinosa,Chico,82.55,136.08,92.99,158.76,387.82,Single-ply,SBD,M
Boys,89.81,13,Cody Armstrong,Chico,83.28,163.29,74.84,142.88,381.02,Single-ply,SBD,M
Boys,89.81,14,Jason Escobedo,Lake Worth,86.91,145.15,86.18,149.69,381.02,Single-ply,SBD,M
Boys,89.81,15,Mason Chapa,Castleberry,84.46,138.35,79.38,158.76,376.48,Single-ply,SBD,M
Boys,89.81,16,Logan Ramsey,Perrin-Whitt,87.23,136.08,95.25,117.93,349.27,Single-ply,SBD,M
Boys,99.79,17,David Garcia #11,Mineral Wells,89.9,140.61,65.77,127.01,333.39,Single-ply,SBD,M
Boys,89.81,18,Sebastian Hernandez,Castleberry,89.63,127.01,68.04,136.08,331.12,Single-ply,SBD,M
Boys,89.81,19,Frank Hernandez,Mineral Wells,83.28,122.47,74.84,131.54,328.85,Single-ply,SBD,M
Boys,89.81,20,Donnie Neal,Chico,85.82,113.4,61.23,138.35,312.98,Single-ply,SBD,M
Boys,89.81,21,Trenton Thibault,Mineral Wells,84.91,113.4,72.57,111.13,297.1,Single-ply,SBD,M
Boys,89.81,22,Michael Robinson,Millsap,83.64,90.72,61.23,111.13,263.08,Single-ply,SBD,M
Boys,89.81,23,Jonathan Garner,Decatur,84.01,104.33,45.36,104.33,254.01,Single-ply,SBD,M
Boys,99.79,1,Ej Lozada,Jacksboro,96.34,235.87,138.35,272.16,646.37,Single-ply,SBD,M
Boys,99.79,2,Austin Hanson,Jacksboro,92.9,229.06,147.42,244.94,621.42,Single-ply,SBD,M
Boys,109.77,3,Noah Perez,Stephenville,99.88,192.78,124.74,192.78,510.29,Single-ply,SBD,M
Boys,99.79,4,Christopher Reyes,Castleberry,97.61,185.97,113.4,185.97,485.34,Single-ply,SBD,M
Boys,99.79,5,Mike Galindo,Chico,97.7,185.97,102.06,190.51,478.54,Single-ply,SBD,M
Boys,99.79,6,Federico Arvizu,Castleberry,97.89,181.44,97.52,181.44,460.4,Single-ply,SBD,M
Boys,99.79,7,Connor Wamerdam,Stephenville,93.17,147.42,106.59,158.76,412.77,Single-ply,SBD,M
Boys,99.79,8,Joseph Evans,Chico,91.26,158.76,88.45,163.29,410.5,Single-ply,SBD,M
Boys,99.79,9,Anthony Castillo,Castleberry,94.35,138.35,92.99,147.42,378.75,Single-ply,SBD,M
Boys,99.79,10,Justin Callahan,Decatur,95.62,120.2,79.38,136.08,335.66,Single-ply,SBD,M
Boys,99.79,11,Cody Holaway,Decatur,98.61,147.42,61.23,127.01,335.66,Single-ply,SBD,M
Boys,109.77,1,Kirk Weldon,Jacksboro,100.15,229.06,142.88,263.08,635.03,Single-ply,SBD,M
Boys,109.77,2,Mitchell Coker,Millsap,103.15,217.72,149.69,233.6,601.01,Single-ply,SBD,M
Boys,109.77,3,Jacob Martin,Stephenville,102.06,226.8,136.08,204.12,566.99,Single-ply,SBD,M
Boys,109.77,4,Austin Rudloff,Stephenville,106.59,170.1,142.88,185.97,498.95,Single-ply,SBD,M
Boys,109.77,5,Jacob Boyd,Mineral Wells,106.05,172.37,136.08,181.44,489.88,Single-ply,SBD,M
Boys,109.77,6,Tomas Barrientes,Castleberry,100.79,183.7,108.86,167.83,460.4,Single-ply,SBD,M
Boys,109.77,7,Aaron Hite,Mineral Wells,105.23,176.9,108.86,167.83,453.59,Single-ply,SBD,M
Boys,109.77,8,Joseph Lindley,Mineral Wells,108.59,181.44,92.99,149.69,424.11,Single-ply,SBD,M
Boys,124.74,1,Joe Gonzales,Justin Northwest,118.48,294.84,163.29,249.48,707.6,Single-ply,SBD,M
Boys,124.74,2,Austin Northcutt,Stephenville,112.04,215.46,129.27,226.8,571.53,Single-ply,SBD,M
Boys,124.74,3,Diamond Cardona,Godley,119.84,199.58,149.69,222.26,571.53,Single-ply,SBD,M
Boys,124.74,4,Max Driscoll,Godley,121.2,204.12,167.83,199.58,571.53,Single-ply,SBD,M
Boys,124.74,5,Tanner Edwards,Paradise,115.85,208.65,136.08,181.44,526.17,Single-ply,SBD,M
Boys,124.74,6,Cody Channer,Millsap,110.5,192.78,140.61,183.7,517.1,Single-ply,SBD,M
Boys,124.74,7,Dayne Maclin,Justin Northwest,111.13,181.44,113.4,181.44,476.27,Single-ply,SBD,M
Boys,124.74,8,Ricardo Martinez #6,Mineral Wells,116.48,158.76,104.33,131.54,394.63,Single-ply,SBD,M
Boys,124.74,9,Ian Middleton,Stephenville,110.59,138.35,83.91,147.42,369.68,Single-ply,SBD,M
Boys,124.74,10,Alvaro Sosa,Perrin-Whitt,116.03,90.72,86.18,136.08,312.98,Single-ply,SBD,M
Boys,124.74,11,Colby Lowe,Peaster,118.21,83.91,79.38,90.72,254.01,Single-ply,SBD,M
Boys,124.74,DQ,Christian Martinez,Perrin-Whitt,119.2,,,188.24,,Single-ply,SBD,M
Boys,124.74+,1,Joe Cruz,Lake Worth,127.64,197.31,124.74,195.04,517.1,Single-ply,SBD,M
Boys,124.74+,2,Mick Williams,Stephenville,159.12,181.44,138.35,181.44,501.22,Single-ply,SBD,M
Boys,124.74+,3,Luke Miller,Paradise,154.22,226.8,102.06,170.1,498.95,Single-ply,SBD,M
Boys,124.74+,4,Matt Briggs,Justin Northwest,134.08,174.63,122.47,181.44,478.54,Single-ply,SBD,M
