Place,Name,Sex,Event,Division,WeightClassKg,Equipment,BirthYear,State,BodyweightKg,Squat1Kg,Squat2Kg,Squat3Kg,Best3SquatKg,Bench1Kg,Bench2Kg,Bench3Kg,Best3BenchKg,Deadlift1Kg,Deadlift2Kg,Deadlift3Kg,Best3DeadliftKg,TotalKg,Age,BirthDate
1,Patricia Southerland,F,SBD,F-O,63,Single-ply,1988,MS,62.9,175,180,-185,180,75,-130,-130,75,75,,,75,330,,
1,Maura McLaughlin,F,SBD,F-T2,47,Single-ply,2004,MS,47,85,-95,-95,85,55,57.5,60,60,85,95,100,100,245,,
1,Mary Claire Dale,F,SBD,F-T3,84,Single-ply,2002,MS,81,147.5,155,160,160,82.5,-90,-90,82.5,162.5,-175,-175,162.5,405,,
1,Chris Tran,M,SBD,M-O,59,Single-ply,1988,MS,58.9,247.5,260,265,265,145,152.5,155,155,237.5,250,-255,250,670,,
1,Knute Douglas,M,SBD,M-O,83,Single-ply,1989,MS,83,342.5,357.5,365,365,217.5,225,230,230,312.5,325,332.5,332.5,927.5,,
1,Noah McKay,M,SBD,MR-T3,120,Raw,2001,MS,114.5,217.5,230,242.5,242.5,152.5,165,-175,165,242.5,255,260,260,667.5,,
1,Kim Wilson,F,BD,F-M2a,63,Single-ply,1968,MS,62.5,,,,,-82.5,-82.5,82.5,82.5,162.5,165,-175,165,247.5,,
