Division,WeightClassKg,Place,Name,Team,BodyweightKg,Best3SquatKg,Best3BenchKg,Best3DeadliftKg,TotalKg,Equipment,Event,Sex
Boys,51.71,1,Jared Paredez,Big Spring,50.62,147.42,72.57,151.95,371.95,Single-ply,SBD,M
Boys,51.71,2,Sammy Hernandez,Perryton,51.26,131.54,70.31,138.35,340.19,Single-ply,SBD,M
Boys,51.71,3,Alfredo Castillo,Andrews,50.08,117.93,54.43,145.15,317.51,Single-ply,SBD,M
Boys,51.71,4,Mattox Evans,Big Spring,51.07,122.47,63.5,131.54,317.51,Single-ply,SBD,M
Boys,51.71,5,Axel Hernandez #3,Dumas,51.35,120.2,63.5,129.27,312.98,Single-ply,SBD,M
Boys,51.71,6,Christian Solis,Pecos,51.71,99.79,77.11,136.08,312.98,Single-ply,SBD,M
Boys,51.71,7,Andrick Ramirez,Fort Stockton,50.71,113.4,72.57,124.74,310.71,Single-ply,SBD,M
Boys,51.71,8,Brian Tejeda,Perryton,51.17,108.86,65.77,131.54,306.17,Single-ply,SBD,M
Boys,51.71,9,Trey Jimenez,Sweetwater,50.98,108.86,61.23,122.47,292.57,Single-ply,SBD,M
Boys,51.71,10,Jorge Delgado,Andrews,46.36,97.52,52.16,95.25,244.94,Single-ply,SBD,M
Boys,51.71,11,Jose Vasquez Cruz,Andrews,43,95.25,40.82,95.25,231.33,Single-ply,SBD,M
Boys,51.71,12,Kaleb Nance,Midland Greenwood,40.19,52.16,27.22,74.84,154.22,Single-ply,SBD,M
Boys,55.79,1,Bryan Quinteros Jr,Lamesa,55.7,170.1,106.59,197.31,474,Single-ply,SBD,M
Boys,55.79,2,Bryan Ordaz,Dumas,55.61,136.08,86.18,140.61,362.87,Single-ply,SBD,M
Boys,55.79,3,Cruz Martinez,Big Spring,54.7,147.42,74.84,133.81,356.07,Single-ply,SBD,M
Boys,55.79,4,Cesar Ramirez,Perryton,54.88,140.61,70.31,136.08,347,Single-ply,SBD,M
Boys,55.79,5,Jesse Martinez,Dumas,54.7,120.2,77.11,138.35,335.66,Single-ply,SBD,M
Boys,55.79,6,Corbyn Sharp,Vernon,55.79,108.86,83.91,127.01,319.78,Single-ply,SBD,M
Boys,55.79,7,Anthony Tran #2,Seminole,54.79,106.59,65.77,140.61,312.98,Single-ply,SBD,M
Boys,55.79,8,Kendrick Porras,Fort Stockton,52.8,120.2,52.16,136.08,308.44,Single-ply,SBD,M
Boys,55.79,9,Alejandro Lujan,Fort Stockton,53.8,106.59,49.9,129.27,285.76,Single-ply,SBD,M
Boys,55.79,DQ,Christian Rayos,Levelland,54.43,,,,,Single-ply,SBD,M
Boys,55.79,NS,Bryan Marquez,Andrews,,,,,,Single-ply,SBD,M
Boys,59.87,1,Miguel Arroyo,San Angelo Lake View,58.79,188.24,104.33,172.37,464.93,Single-ply,SBD,M
Boys,59.87,2,Joshua Lopez,Big Spring,58.88,158.76,88.45,197.31,444.52,Single-ply,SBD,M
Boys,59.87,3,Gilbert Pena,Dumas,59.6,156.49,95.25,170.1,421.84,Single-ply,SBD,M
Boys,59.87,4,Junie Gonzales,Midland Greenwood,59.06,165.56,83.91,165.56,415.04,Single-ply,SBD,M
Boys,59.87,5,Shawn Mendoza,Big Spring,59.15,149.69,86.18,179.17,415.04,Single-ply,SBD,M
Boys,59.87,6,Lucas Esparza,Andrews,59.51,165.56,83.91,163.29,412.77,Single-ply,SBD,M
Boys,59.87,7,Jeremiah Collins,Big Spring,58.6,151.95,72.57,158.76,383.29,Single-ply,SBD,M
Boys,59.87,8,Sebastian Gonzales,Sweetwater,59.78,142.88,74.84,151.95,369.68,Single-ply,SBD,M
Boys,59.87,9,Ben Brown,Borger,56.43,124.74,63.5,136.08,324.32,Single-ply,SBD,M
Boys,59.87,DQ,Damian Mendoza,Dumas,58.79,,,,,Single-ply,SBD,M
Boys,59.87,DQ,Corbin Byrd,Dalhart,58.51,151.95,,,,Single-ply,SBD,M
Boys,59.87,NS,Timothy Hernandez,Dumas,,,,,,Single-ply,SBD,M
Boys,67.13,1,Josue Becerril,Perryton,66.68,256.28,138.35,235.87,630.49,Single-ply,SBD,M
Boys,67.13,2,Brandon Sigala,Levelland,66.5,188.24,111.13,226.8,526.17,Single-ply,SBD,M
Boys,67.13,3,Christian Valles,Andrews,65.5,201.85,108.86,206.38,517.1,Single-ply,SBD,M
Boys,67.13,4,Patrick Hernandez,Midland Greenwood,66.68,195.04,113.4,204.12,512.56,Single-ply,SBD,M
Boys,67.13,5,Juan Salgado,Fort Stockton,65.32,179.17,129.27,183.7,492.15,Single-ply,SBD,M
Boys,67.13,6,Evan Judd,Dumas,64.86,192.78,104.33,192.78,489.88,Single-ply,SBD,M
Boys,67.13,7,Jorge Martinez,Snyder,66.86,192.78,90.72,201.85,485.34,Single-ply,SBD,M
Boys,67.13,8,Kendal Adames,Sweetwater,64.32,167.83,88.45,188.24,444.52,Single-ply,SBD,M
Boys,67.13,9,Uriel Avila,Perryton,65.86,154.22,108.86,174.63,437.72,Single-ply,SBD,M
Boys,67.13,10,Gabriel Zubiate,Seminole,67.04,174.63,77.11,181.44,433.18,Single-ply,SBD,M
Boys,67.13,11,Luis Zubiate,Seminole,65.95,161.03,70.31,174.63,405.97,Single-ply,SBD,M
Boys,67.13,DQ,Khup Thang,Dumas,65.5,,,,,Single-ply,SBD,M
Boys,74.84,1,Ryan Orona,Pecos,74.3,199.58,138.35,238.14,576.06,Single-ply,SBD,M
Boys,74.84,2,Matthew Cano,Perryton,73.48,213.19,133.81,226.8,573.79,Single-ply,SBD,M
Boys,74.84,3,Raymond Flores,Andrews,70.13,208.65,131.54,199.58,539.77,Single-ply,SBD,M
Boys,74.84,4,Devin Doerksen,Seminole,73.21,204.12,111.13,217.72,532.97,Single-ply,SBD,M
Boys,74.84,5,Brody Jasso,Snyder,74.21,195.04,124.74,210.92,530.7,Single-ply,SBD,M
Boys,74.84,6,Josh Camacho,Sweetwater,69.13,195.04,117.93,215.46,528.44,Single-ply,SBD,M
Boys,74.84,7,Joseph Raissez,Perryton,73.84,208.65,106.59,213.19,528.44,Single-ply,SBD,M
Boys,74.84,8,Ethan Cortez,Big Spring,72.48,201.85,113.4,210.92,526.17,Single-ply,SBD,M
Boys,74.84,9,Jahir Romero,Perryton,70.03,172.37,111.13,204.12,487.61,Single-ply,SBD,M
Boys,74.84,10,Jonathan Valdez,Snyder,74.57,190.51,115.67,176.9,483.08,Single-ply,SBD,M
Boys,74.84,DQ,Bryzon Austin,Vernon,73.03,,,,,Single-ply,SBD,M
Boys,74.84,DQ,Timothy Dettle,Dalhart,73.3,,,,,Single-ply,SBD,M
Boys,82.1,1,Jj Burns,Snyder,81.37,249.48,122.47,249.48,621.42,Single-ply,SBD,M
Boys,82.1,2,Davin Gates,Dumas,80.83,238.14,147.42,233.6,619.15,Single-ply,SBD,M
Boys,82.1,3,Isaac Garza,Levelland,81.1,208.65,136.08,226.8,571.53,Single-ply,SBD,M
Boys,82.1,4,Edgar Olvera,Dalhart,81.92,222.26,127.01,219.99,569.26,Single-ply,SBD,M
Boys,82.1,5,Ernesto Ornales,Monahans,80.56,213.19,145.15,208.65,566.99,Single-ply,SBD,M
Boys,82.1,6,Matthew Everett,Fort Stockton,76.29,219.99,117.93,217.72,555.65,Single-ply,SBD,M
Boys,82.1,7,Tony Padilla,Sweetwater,81.74,195.04,127.01,217.72,539.77,Single-ply,SBD,M
Boys,82.1,8,Carter Christensen,San Angelo Lake View,80.65,185.97,142.88,192.78,521.63,Single-ply,SBD,M
Boys,82.1,9,Petey Martinez,Perryton,80.83,192.78,113.4,204.12,510.29,Single-ply,SBD,M
Boys,82.1,DQ,Devin Mora,Andrews,77.66,,,,,Single-ply,SBD,M
Boys,82.1,DQ,Josue Flores,Andrews,81.28,,,,,Single-ply,SBD,M
Boys,82.1,DQ,Usbaldo Zarate,Dalhart,79.56,235.87,,,,Single-ply,SBD,M
Boys,89.81,1,Robert Herndon,Perryton,89.45,290.3,183.7,263.08,737.09,Single-ply,SBD,M
Boys,89.81,2,Ethan Coleman,Midland Greenwood,87.36,265.35,170.1,231.33,666.78,Single-ply,SBD,M
Boys,89.81,3,Anthony Aguilera,Dalhart,88.54,210.92,142.88,233.6,587.4,Single-ply,SBD,M
Boys,89.81,4,Justin Gonzales,Andrews,86.91,222.26,151.95,204.12,578.33,Single-ply,SBD,M
Boys,89.81,5,Bryson Duncan,Snyder,86.64,231.33,133.81,204.12,569.26,Single-ply,SBD,M
Boys,89.81,6,J Tom Garcia,Andrews,88.36,224.53,156.49,185.97,566.99,Single-ply,SBD,M
Boys,89.81,7,John Flores,Snyder,88.45,222.26,136.08,190.51,548.85,Single-ply,SBD,M
Boys,89.81,8,Alonso Tarango,Perryton,88.36,213.19,140.61,190.51,544.31,Single-ply,SBD,M
Boys,89.81,9,Mykel Sevier,San Angelo Lake View,84.73,213.19,142.88,165.56,521.63,Single-ply,SBD,M
Boys,89.81,10,Alex Rincon,San Angelo Lake View,88.63,192.78,115.67,210.92,519.36,Single-ply,SBD,M
Boys,89.81,11,Aaron Olivas,Andrews,86.91,213.19,124.74,172.37,510.29,Single-ply,SBD,M
Boys,89.81,12,Xander Richardson,Snyder,86.91,199.58,99.79,190.51,489.88,Single-ply,SBD,M
Boys,89.81,13,Tinaye Mubvumba,Vernon,85.09,176.9,113.4,192.78,483.08,Single-ply,SBD,M
Boys,89.81,NS,Alan Rodriguez,Andrews,,4.08,,,,Single-ply,SBD,M
Boys,99.79,1,Ian Alvidrez,Seminole,98.43,299.37,185.97,297.1,782.45,Single-ply,SBD,M
Boys,99.79,2,Hayden Pipkin,Monahans,93.98,235.87,167.83,235.87,639.57,Single-ply,SBD,M
Boys,99.79,3,Reyes Silva,Snyder,94.17,272.16,131.54,233.6,637.3,Single-ply,SBD,M
Boys,99.79,4,Octavio Frausto,Andrews,97.79,254.01,147.42,219.99,621.42,Single-ply,SBD,M
Boys,99.79,5,Jay Ramirez,Perryton,96.52,249.48,124.74,226.8,601.01,Single-ply,SBD,M
Boys,99.79,6,Connor McDonald,Midland Greenwood,96.98,244.94,145.15,210.92,601.01,Single-ply,SBD,M
Boys,99.79,7,Isaiah Rodriguez,Big Spring,95.25,238.14,113.4,217.72,569.26,Single-ply,SBD,M
Boys,99.79,8,Shane Whitworth,Canyon,97.98,226.8,136.08,204.12,566.99,Single-ply,SBD,M
Boys,99.79,9,Dalton Reagan,Vernon,90.54,199.58,136.08,181.44,517.1,Single-ply,SBD,M
Boys,99.79,10,Petronillo Bustamante,Andrews,96.98,208.65,113.4,195.04,517.1,Single-ply,SBD,M
Boys,99.79,11,Aleyas Bland,Big Spring,98.25,190.51,124.74,179.17,494.42,Single-ply,SBD,M
Boys,99.79,DQ,Karlo Sanchez,Dumas,98.79,,,,,Single-ply,SBD,M
Boys,109.77,1,Justin Castereno,Sweetwater,108.32,278.96,176.9,256.28,712.14,Single-ply,SBD,M
Boys,109.77,2,Ubaldo Tarango,Perryton,108.5,249.48,151.95,240.4,641.83,Single-ply,SBD,M
Boys,109.77,3,Joel Estrella,Andrews,107.77,254.01,161.03,215.46,630.49,Single-ply,SBD,M
Boys,109.77,4,Christian Bell,Midland Greenwood,99.88,238.14,147.42,233.6,619.15,Single-ply,SBD,M
Boys,109.77,5,Logan Sanders,San Angelo Lake View,103.42,215.46,145.15,226.8,587.4,Single-ply,SBD,M
Boys,109.77,6,Bo Christie,Canyon,107.5,213.19,127.01,226.8,566.99,Single-ply,SBD,M
Boys,109.77,7,Christian Baca,Pecos,108.59,224.53,102.06,226.8,553.38,Single-ply,SBD,M
Boys,109.77,8,Andrew Castro,Fort Stockton,109.04,233.6,117.93,199.58,551.11,Single-ply,SBD,M
Boys,109.77,9,Yostin Villagomez,Dalhart,104.87,208.65,154.22,181.44,544.31,Single-ply,SBD,M
Boys,109.77,DQ,Ely Barrera,Sweetwater,103.96,170.1,102.06,,,Single-ply,SBD,M
Boys,109.77,DQ,Chris Delatorre,Dumas,105.78,233.6,,,,Single-ply,SBD,M
Boys,109.77,DQ,Rey Heredia,Borger,102.69,,,,,Single-ply,SBD,M
Boys,124.74,1,Kobe Fahntrapp,Snyder,122.2,331.12,204.12,281.23,816.47,Single-ply,SBD,M
Boys,124.74,2,Yordi Hernandez,Perryton,122.83,310.71,165.56,247.21,723.48,Single-ply,SBD,M
Boys,124.74,3,Gabriel Marin,Andrews,114.85,258.55,161.03,226.8,646.37,Single-ply,SBD,M
Boys,124.74,4,Ivien Gonzales,Lamesa,122.65,260.82,147.42,222.26,630.49,Single-ply,SBD,M
Boys,124.74,5,Kwinton Jennings,Seminole,123.2,265.35,117.93,233.6,616.89,Single-ply,SBD,M
Boys,124.74,6,Jaziel Rivera,Borger,111.04,251.74,149.69,204.12,605.55,Single-ply,SBD,M
Boys,124.74,7,Miguel Celis,Perryton,115.48,231.33,133.81,210.92,576.06,Single-ply,SBD,M
Boys,124.74,8,Gus Jameson,Dalhart,121.11,222.26,124.74,213.19,560.19,Single-ply,SBD,M
Boys,124.74,9,Andrew Roberts #4,Big Spring,115.85,208.65,158.76,190.51,557.92,Single-ply,SBD,M
Boys,124.74,10,Brendan Herring,Dalhart,121.65,2.72,136.08,206.38,345.18,Single-ply,SBD,M
Boys,124.74,DQ,Marc Rodriguez,Vernon,119.75,217.72,,,,Single-ply,SBD,M
Boys,124.74,NS,Ethan Martinez,Lamesa,,,,,,Single-ply,SBD,M
Boys,124.74+,1,Tytus Williams,Borger,136.98,294.84,156.49,256.28,707.6,Single-ply,SBD,M
Boys,124.74+,2,Reece Azam,Andrews,132.63,274.42,190.51,226.8,691.73,Single-ply,SBD,M
Boys,124.74+,3,Zach Garcia,Pecos,157.76,281.23,142.88,226.8,650.91,Single-ply,SBD,M
Boys,124.74+,4,Ethan Sanchez,San Angelo Lake View,143.7,242.67,167.83,226.8,637.3,Single-ply,SBD,M
Boys,124.74+,5,Xosue Duran,San Angelo Lake View,170.55,249.48,140.61,233.6,623.69,Single-ply,SBD,M
Boys,124.74+,6,Albert Aguilar,Pecos,146.15,240.4,181.44,181.44,603.28,Single-ply,SBD,M
Boys,124.74+,7,Zachary Roberts,Big Spring,175.54,231.33,136.08,188.24,555.65,Single-ply,SBD,M
Boys,124.74+,8,Jonathan Gomez #1,Fort Stockton,140.25,242.67,120.2,188.24,551.11,Single-ply,SBD,M
Boys,124.74+,9,Andy Pena,Perryton,136.53,215.46,147.42,183.7,546.58,Single-ply,SBD,M
Boys,124.74+,DQ,Omar Hernandez #1,Dumas,125.1,254.01,,,,Single-ply,SBD,M
Boys,124.74+,DQ,Jaden Massey,Dalhart,156.49,,,,,Single-ply,SBD,M
Boys,124.74+,DQ,Myles Johnson,Levelland,134.54,,,,,Single-ply,SBD,M
