Division,WeightClassKg,Place,Name,Team,BodyweightKg,Best3SquatKg,Best3BenchKg,Best3DeadliftKg,TotalKg,Equipment,Event,Sex
Boys,51.71,1,Tyler Salazar,Donna,51.53,138.35,81.65,142.88,362.87,Single-ply,SBD,M
Boys,51.71,2,Cody Acosta,PSJA,48.44,111.13,70.31,129.27,310.71,Single-ply,SBD,M
Boys,51.71,3,Abe Villarreal,Hidalgo Early College,51.62,111.13,74.84,122.47,308.44,Single-ply,SBD,M
Boys,51.71,4,Eduardo Segura,Pharr Valley View,51.53,113.4,68.04,113.4,294.84,Single-ply,SBD,M
Boys,51.71,5,Michael Puente,PSJA Southwest,51.07,111.13,58.97,117.93,288.03,Single-ply,SBD,M
Boys,55.79,1,Mike Barajas,Hidalgo Early College,55.66,210.92,124.74,185.97,521.63,Single-ply,SBD,M
Boys,55.79,2,Mauro Vargas,La Joya Juarez-Lincoln,55.16,190.51,120.2,183.7,494.42,Single-ply,SBD,M
Boys,55.79,3,JJ Ortiz,Los Fresnos,55.52,172.37,113.4,185.97,471.74,Single-ply,SBD,M
Boys,55.79,4,Josue Morin,PSJA North,55.79,127.01,97.52,138.35,362.87,Single-ply,SBD,M
Boys,55.79,5,Marco Pina,Donna North,55.79,142.88,77.11,142.88,362.87,Single-ply,SBD,M
Boys,55.79,6,Jacob Castillo,PSJA Memorial,55.79,79.38,56.7,86.18,222.26,Single-ply,SBD,M
Boys,55.79,DQ,Jodavid Pena,Rio Grande City Grulla,55.7,90.72,,,,Single-ply,SBD,M
Boys,59.87,1,Juan Rivera,Los Fresnos,59.42,213.19,142.88,229.06,585.13,Single-ply,SBD,M
Boys,59.87,2,Abraham Zermeno,Donna North,59.78,181.44,104.33,176.9,462.66,Single-ply,SBD,M
Boys,59.87,3,Jose Serna,Weslaco East,59.19,172.37,81.65,167.83,421.84,Single-ply,SBD,M
Boys,59.87,4,Angel Flores #2,Mercedes,55.88,145.15,102.06,156.49,403.7,Single-ply,SBD,M
Boys,59.87,5,Albert Valle,Hidalgo Early College,59.78,151.95,92.99,156.49,401.43,Single-ply,SBD,M
Boys,59.87,6,Juan Gonzalez,PSJA Southwest,59.87,136.08,88.45,167.83,392.36,Single-ply,SBD,M
Boys,59.87,7,Denilson Guevara,PSJA North,59.42,142.88,88.45,158.76,390.09,Single-ply,SBD,M
Boys,59.87,8,Abel Marquez,Mission Veterans Memorial,56.61,74.84,61.23,111.13,247.21,Single-ply,SBD,M
Boys,59.87,DQ,Miguel Tovar,Donna North,59.87,149.69,,,,Single-ply,SBD,M
Boys,59.87,DQ,Roman Zarate,Rio Grande City Grulla,59.42,108.86,,,,Single-ply,SBD,M
Boys,67.13,1,Homer Gonzalez,La Feria,67.13,224.53,136.08,224.53,585.13,Single-ply,SBD,M
Boys,67.13,2,Juan Tamez,Weslaco East,65.14,204.12,102.06,208.65,514.83,Single-ply,SBD,M
Boys,67.13,3,Robert Alaniz,Weslaco East,66.32,199.58,117.93,195.04,512.56,Single-ply,SBD,M
Boys,67.13,4,Gilbert Rosales,Mission Veterans Memorial,65.95,170.1,115.67,170.1,455.86,Single-ply,SBD,M
Boys,67.13,5,Angel Sandoval,Donna North,66.95,149.69,90.72,188.24,428.64,Single-ply,SBD,M
Boys,67.13,6,Richard Nunez,Hidalgo Early College,65.59,151.95,97.52,176.9,426.38,Single-ply,SBD,M
Boys,67.13,7,Steven Medrano,La Feria,66.68,147.42,83.91,181.44,412.77,Single-ply,SBD,M
Boys,67.13,8,Antonio Gomez,Donna North,66.59,147.42,86.18,167.83,401.43,Single-ply,SBD,M
Boys,67.13,9,Artemio Balderas,PSJA Memorial,63.87,149.69,88.45,156.49,394.63,Single-ply,SBD,M
Boys,67.13,10,Daniel Mireles,PSJA Memorial,61.23,136.08,79.38,176.9,392.36,Single-ply,SBD,M
Boys,67.13,11,Oliver Barrera,Rio Grande City Grulla,66.41,106.59,81.65,136.08,324.32,Single-ply,SBD,M
Boys,67.13,DQ,Jacob Pina,La Joya Palmview,62.41,158.76,,,,Single-ply,SBD,M
Boys,67.13,DQ,Nick Pena,Donna North,65.5,147.42,83.91,,,Single-ply,SBD,M
Boys,74.84,1,Jesse Rodriguez,PSJA Memorial,74.3,231.33,136.08,231.33,598.74,Single-ply,SBD,M
Boys,74.84,2,Marcus Caceres,Weslaco East,72.94,201.85,149.69,213.19,564.72,Single-ply,SBD,M
Boys,74.84,3,John Salazar,Los Fresnos,71.49,204.12,127.01,226.8,557.92,Single-ply,SBD,M
Boys,74.84,4,Andy Hernandez #3,Hidalgo Early College,74.71,201.85,124.74,213.19,539.77,Single-ply,SBD,M
Boys,74.84,5,Sean De La Garza,Mission Veterans Memorial,74.21,183.7,140.61,190.51,514.83,Single-ply,SBD,M
Boys,74.84,6,Marky Fonseca,Los Fresnos,71.67,176.9,122.47,204.12,503.49,Single-ply,SBD,M
Boys,74.84,7,Eric Hinojosa,Mercedes,74.03,199.58,117.93,183.7,501.22,Single-ply,SBD,M
Boys,74.84,8,Michael Valle,Hidalgo Early College,73.66,190.51,104.33,199.58,494.42,Single-ply,SBD,M
Boys,74.84,9,AJ Munguia,Mission Veterans Memorial,72.3,154.22,106.59,142.88,403.7,Single-ply,SBD,M
Boys,74.84,10,Marc Garcia,La Joya,74.84,142.88,97.52,142.88,383.29,Single-ply,SBD,M
Boys,74.84,DQ,Joe Rodriguez,PSJA Southwest,72.94,242.67,140.61,,,Single-ply,SBD,M
Boys,74.84,DQ,Jorge Cavazos,Mercedes,68.31,,,,,Single-ply,SBD,M
Boys,82.1,1,Robert Hernandez,La Joya Juarez-Lincoln,80.29,263.08,151.95,267.62,682.66,Single-ply,SBD,M
Boys,82.1,2,Fabian Rodriguez,Los Fresnos,82.1,244.94,158.76,256.28,659.98,Single-ply,SBD,M
Boys,82.1,3,Roy Pedraza,Weslaco East,81.1,226.8,156.49,272.16,655.44,Single-ply,SBD,M
Boys,82.1,4,Peter Quiroz,Hidalgo Early College,81.92,208.65,145.15,229.06,582.87,Single-ply,SBD,M
Boys,82.1,5,Luis Aguirre,Weslaco East,80.74,195.04,136.08,238.14,569.26,Single-ply,SBD,M
Boys,82.1,6,Sal Mendez,PSJA Southwest,81.28,170.1,136.08,217.72,523.9,Single-ply,SBD,M
Boys,82.1,7,Andrew Leija,PSJA North,80.65,185.97,124.74,208.65,519.36,Single-ply,SBD,M
Boys,82.1,8,Miguel Espino,PSJA Southwest,79.38,190.51,129.27,172.37,492.15,Single-ply,SBD,M
Boys,82.1,9,Haraldo Ramirez,Rio Grande City Grulla,81.19,197.31,108.86,181.44,487.61,Single-ply,SBD,M
Boys,82.1,10,José Saldaña,La Feria,81.74,199.58,113.4,172.37,485.34,Single-ply,SBD,M
Boys,82.1,11,Joel Pina,La Joya Palmview,76.29,176.9,106.59,174.63,458.13,Single-ply,SBD,M
Boys,82.1,12,Anibal Espinoza,La Joya,78.02,176.9,99.79,176.9,453.59,Single-ply,SBD,M
Boys,82.1,13,Alfredo Perez,La Joya,75.84,183.7,88.45,174.63,446.79,Single-ply,SBD,M
Boys,82.1,14,Gilberto Vazaldua,PSJA,81.74,124.74,68.04,115.67,308.44,Single-ply,SBD,M
Boys,82.1,DQ,Cain Rodriguez,PSJA,79.83,138.35,102.06,,,Single-ply,SBD,M
Boys,82.1,DQ,Nathan Beraza,PSJA,80.65,149.69,102.06,,,Single-ply,SBD,M
Boys,89.81,1,Julio Garcia,La Joya Juarez-Lincoln,89.36,240.4,163.29,242.67,646.37,Single-ply,SBD,M
Boys,89.81,2,Daniel Yanez,Donna,89.09,247.21,156.49,229.06,632.76,Single-ply,SBD,M
Boys,89.81,3,Ernesto Preciado,Pharr Valley View,87.91,231.33,136.08,222.26,589.67,Single-ply,SBD,M
Boys,89.81,4,Roger Adame,Mercedes,87.54,226.8,131.54,201.85,560.19,Single-ply,SBD,M
Boys,89.81,5,Isaac Aleman,Hidalgo Early College,89.72,206.38,129.27,213.19,548.85,Single-ply,SBD,M
Boys,89.81,6,Bryan Smith #4,Mercedes,84.64,188.24,136.08,206.38,530.7,Single-ply,SBD,M
Boys,89.81,7,Bryan Moqueda,PSJA Southwest,87.36,183.7,138.35,201.85,523.9,Single-ply,SBD,M
Boys,89.81,8,Salvador Mendoza,La Feria,87.54,195.04,108.86,188.24,492.15,Single-ply,SBD,M
Boys,89.81,9,Arturo Alvarado,La Feria,88.27,192.78,117.93,181.44,492.15,Single-ply,SBD,M
Boys,89.81,10,Mark Zamorano,Los Fresnos,88.18,183.7,129.27,170.1,483.08,Single-ply,SBD,M
Boys,89.81,11,Uriel Aguilera,Pharr Valley View,88.81,188.24,97.52,181.44,467.2,Single-ply,SBD,M
Boys,89.81,12,Eddie Garza,Donna,84.01,181.44,108.86,174.63,464.93,Single-ply,SBD,M
Boys,89.81,13,Osvaldo Garcia,Mission Veterans Memorial,89.36,142.88,81.65,131.54,356.07,Single-ply,SBD,M
Boys,89.81,14,Nathan Morales,La Feria,82.28,136.08,72.57,136.08,344.73,Single-ply,SBD,M
Boys,89.81,DQ,Jose Avalos,La Joya Palmview,89.09,181.44,113.4,,,Single-ply,SBD,M
Boys,99.79,1,Israel Alfaro,Weslaco East,99.16,283.5,165.56,260.82,709.87,Single-ply,SBD,M
Boys,99.79,2,Fernando Gonzalez,La Joya Palmview,98.52,297.1,161.03,249.48,707.6,Single-ply,SBD,M
Boys,99.79,3,Jesus Ramos,Hidalgo Early College,99.61,276.69,158.76,219.99,655.44,Single-ply,SBD,M
Boys,99.79,4,Victor Garza,PSJA Southwest,90.36,249.48,154.22,213.19,616.89,Single-ply,SBD,M
Boys,99.79,5,Eason Calderon,Donna,95.44,244.94,158.76,199.58,603.28,Single-ply,SBD,M
Boys,99.79,6,Quinten Martinez,Rio Grande City,96.52,233.6,113.4,254.01,601.01,Single-ply,SBD,M
Boys,99.79,7,David Decanini #2,Weslaco East,92.99,222.26,142.88,226.8,591.94,Single-ply,SBD,M
Boys,99.79,8,Gilbert Romero,La Joya Juarez-Lincoln,96.62,226.8,136.08,208.65,571.53,Single-ply,SBD,M
Boys,99.79,9,Ramiro Aguirre,Weslaco East,97.52,201.85,158.76,210.92,571.53,Single-ply,SBD,M
Boys,99.79,10,Michael Gutierrez,Mercedes,95.35,219.99,127.01,201.85,548.85,Single-ply,SBD,M
Boys,99.79,11,Armando Chavero,Rio Grande City,95.89,199.58,138.35,208.65,546.58,Single-ply,SBD,M
Boys,99.79,12,Alex Trevino,PSJA Memorial,99.7,199.58,124.74,213.19,537.51,Single-ply,SBD,M
Boys,99.79,13,Sergio Barajas,PSJA Memorial,96.8,208.65,108.86,206.38,523.9,Single-ply,SBD,M
Boys,99.79,14,Leeroy Barrientos,Hidalgo Early College,96.43,195.04,104.33,213.19,512.56,Single-ply,SBD,M
Boys,99.79,15,Julio Menchaca,Rio Grande City Grulla,98.07,208.65,111.13,183.7,503.49,Single-ply,SBD,M
Boys,99.79,16,Caleb Zerrato,PSJA Memorial,96.52,204.12,102.06,190.51,496.68,Single-ply,SBD,M
Boys,99.79,17,Said Aleman,Hidalgo Early College,94.8,213.19,115.67,158.76,487.61,Single-ply,SBD,M
Boys,99.79,18,José Fernández,La Joya,99.7,183.7,120.2,183.7,487.61,Single-ply,SBD,M
Boys,99.79,19,Roger Juarez,PSJA,94.62,172.37,115.67,185.97,474,Single-ply,SBD,M
Boys,99.79,20,Caleb Longoria,Rio Grande City,98.43,172.37,113.4,185.97,471.74,Single-ply,SBD,M
Boys,99.79,21,Marco Alonozo,La Feria,95.07,183.7,108.86,176.9,469.47,Single-ply,SBD,M
Boys,99.79,22,Julian Olivares,La Joya Palmview,97.89,142.88,102.06,158.76,403.7,Single-ply,SBD,M
Boys,99.79,23,Angel Guiterrez,Pharr Valley View,91.9,149.69,74.84,165.56,390.09,Single-ply,SBD,M
Boys,99.79,24,Gabriel Morales,La Feria,98.43,149.69,83.91,147.42,381.02,Single-ply,SBD,M
Boys,99.79,25,Jaime Penablanca,Rio Grande City Grulla,89.9,133.81,86.18,145.15,365.14,Single-ply,SBD,M
Boys,99.79,DQ,Eddie Garza,Rio Grande City,91.63,170.1,117.93,,,Single-ply,SBD,M
Boys,99.79,DQ,Daniel Gonzalez,La Joya Juarez-Lincoln,96.62,208.65,,,,Single-ply,SBD,M
Boys,109.77,1,Sam Rodriguez,La Joya,104.14,276.69,158.76,226.8,662.24,Single-ply,SBD,M
Boys,109.77,2,Mark Cisneros,Donna,107.95,281.23,149.69,226.8,657.71,Single-ply,SBD,M
Boys,109.77,3,Wally Santamaria,Los Fresnos,103.15,226.8,131.54,265.35,623.69,Single-ply,SBD,M
Boys,109.77,4,Andy Zuniga,PSJA North,108.23,226.8,136.08,215.46,578.33,Single-ply,SBD,M
Boys,109.77,5,Luis Salinas,Rio Grande City,107.95,226.8,136.08,204.12,566.99,Single-ply,SBD,M
Boys,109.77,6,Bryan Cardenas,Donna,105.41,217.72,136.08,208.65,562.45,Single-ply,SBD,M
Boys,109.77,7,Aliver Chapa,La Joya Juarez-Lincoln,106.96,208.65,147.42,204.12,560.19,Single-ply,SBD,M
Boys,109.77,8,Fernando Castro,Hidalgo Early College,101.2,226.8,131.54,197.31,555.65,Single-ply,SBD,M
Boys,109.77,9,Lazaro Bernabe,Hidalgo Early College,100.79,219.99,124.74,199.58,544.31,Single-ply,SBD,M
Boys,109.77,10,Israel Cerda Jr,Donna North,105.14,208.65,127.01,204.12,539.77,Single-ply,SBD,M
Boys,109.77,11,Josh Hernandez,Donna,101.88,240.4,108.86,172.37,521.63,Single-ply,SBD,M
Boys,109.77,12,Axel Hernandez #2,Mission Veterans Memorial,100.97,149.69,88.45,154.22,392.36,Single-ply,SBD,M
Boys,109.77,13,Adrian Meza,Mission Veterans Memorial,105.6,161.03,83.91,142.88,387.82,Single-ply,SBD,M
Boys,109.77,14,Roberto Barba,La Joya Palmview,106.59,136.08,95.25,149.69,381.02,Single-ply,SBD,M
Boys,109.77,DQ,Freddy Martinez,Los Fresnos,107.86,,,,,Single-ply,SBD,M
Boys,109.77,DQ,Angel Almanza,Weslaco East,109.77,,,,,Single-ply,SBD,M
Boys,124.74,1,Shawn Gonzalez,PSJA Southwest,122.92,278.96,156.49,247.21,682.66,Single-ply,SBD,M
Boys,124.74,2,Virgil Munoz,Los Fresnos,120.66,276.69,149.69,222.26,648.64,Single-ply,SBD,M
Boys,124.74,3,Jesus Proa,La Joya Juarez-Lincoln,114.03,226.8,149.69,201.85,578.33,Single-ply,SBD,M
Boys,124.74,4,Gus Silva,Donna,114.76,249.48,136.08,190.51,576.06,Single-ply,SBD,M
Boys,124.74,5,Fernando Robles,Rio Grande City,114.85,190.51,97.52,206.38,494.42,Single-ply,SBD,M
Boys,124.74,6,Ivan Tejada,La Feria,120.2,176.9,108.86,163.29,449.06,Single-ply,SBD,M
Boys,124.74,7,Enrique Guajardo,Pharr Valley View,114.03,172.37,102.06,167.83,442.25,Single-ply,SBD,M
Boys,124.74,8,Gerardo Cantu,Pharr Valley View,114.49,165.56,83.91,138.35,387.82,Single-ply,SBD,M
Boys,124.74,DQ,Anthony Padilla,La Feria,110.04,,,,,Single-ply,SBD,M
Boys,124.74,DQ,Roger Benavidez,Rio Grande City,121.74,281.23,167.83,,,Single-ply,SBD,M
Boys,124.74,DQ,Moises Morales,La Joya Palmview,122.74,,,,,Single-ply,SBD,M
Boys,124.74,DQ,JJ Vallejo,Donna,119.75,272.16,,,,Single-ply,SBD,M
Boys,124.74+,1,Danny Melendez,Mercedes,128.09,283.5,145.15,190.51,619.15,Single-ply,SBD,M
Boys,124.74+,2,Andres Garcia,Weslaco East,136.71,219.99,167.83,213.19,601.01,Single-ply,SBD,M
Boys,124.74+,3,Jaime Morin,Rio Grande City,126.37,233.6,149.69,190.51,573.79,Single-ply,SBD,M
Boys,124.74+,4,Marcus Ascencion,Mission Veterans Memorial,140.7,224.53,113.4,195.04,532.97,Single-ply,SBD,M
Boys,124.74+,5,Isacc Maynez,PSJA Southwest,125.83,204.12,136.08,181.44,521.63,Single-ply,SBD,M
Boys,124.74+,6,Adrian Montalvo,Rio Grande City Grulla,144.06,201.85,127.01,174.63,503.49,Single-ply,SBD,M
Boys,124.74+,7,David Chapa,PSJA,130.73,188.24,102.06,170.1,460.4,Single-ply,SBD,M
Boys,124.74+,8,Napoleon Garza,Hidalgo Early College,148.14,158.76,113.4,142.88,415.04,Single-ply,SBD,M
