Place,Sex,WeightClassKg,BodyweightKg,Name,Team,Squat1Kg,Squat2Kg,Squat3Kg,Best3SquatKg,Bench1Kg,Bench2Kg,Bench3Kg,Best3BenchKg,Deadlift1Kg,Deadlift2Kg,Deadlift3Kg,Best3DeadliftKg,TotalKg,Division,Equipment,BirthYear,BirthDate,Event
1,F,63,62.30,Ellinor Calren,PV,75,80,85,85,40,45,-47.5,45,90,100,-105,100,230,Under 23,Raw,1999,,SBD
1,F,63,62.35,Jenny Björkström,PV,-100,100,115,115,55,60,-65,60,130,145,-147.5,145,320,Open,Raw,1986,,SBD
DQ,F,76,73.50,Nina Heikkinen,PV,-145,-145,-145,,,,,,,,,,,Under 18,Raw,2003,,S
1,M,120,111.50,Samuel Wargh,PV,225,232.5,237.5,237.5,145,155,-160,155,245,252.5,260,260,652.5,Under 23,Raw,1998,,SBD
