Sex,Equipment,Division,WeightClassKg,Name,BodyweightKg,Best3SquatKg,Best3BenchKg,Best3DeadliftKg,TotalKg,Event,Place,BirthDate
F,Raw,Amateur Open,48,Katrina Lelli,46.72,81.65,52.16,124.74,258.55,SBD,1,
F,Raw,Amateur Juniors 20-23,52,Paige VanDemark,50.71,95.25,54.43,136.08,285.76,SBD,1,
F,Raw,Amateur Juniors 20-23,60,Jenna Tuttolomondo,58.69,95.25,,,,SBD,DQ,
F,Raw,Amateur Open,60,Candice Lee,58.06,106.59,61.23,129.27,297.1,SBD,1,
F,Raw,Amateur Open,60,Morgan Julius,57.06,90.72,40.82,129.27,260.82,SBD,2,
F,Wraps,Pro Open,60,Kaitlin Foster,59.69,106.59,56.7,149.69,312.98,SBD,1,
F,Raw,Amateur Open,67.5,Krystal Young,63.32,122.47,79.38,138.35,340.19,SBD,1,
F,Raw,Amateur Open,67.5,Stephanie Hill,65.95,81.65,54.43,99.79,235.87,SBD,2,
F,Raw,Amateur Open,67.5,Ashlee Fullington,61.87,,,,,SBD,DQ,
F,Raw,Amateur Submasters 33-39,67.5,Kelly Zimmerman,66.77,90.72,56.7,124.74,272.16,SBD,1,
F,Raw,Pro Open,67.5,Steph Powell,66.32,151.95,90.72,206.38,449.06,SBD,1,
F,Raw,Pro Open,67.5,Stephanie Szpila,63.96,117.93,68.04,142.88,328.85,SBD,2,
F,Wraps,Pro Masters 45-49,67.5,Penny Rodden,66.13,124.74,72.57,142.88,340.19,SBD,1,
F,Raw,Amateur Juniors 20-23,75,Megan Kerwin,67.59,74.84,54.43,127.01,256.28,SBD,1,
F,Single-ply,Pro Open,75,Alicia Good,74.75,136.08,70.31,124.74,331.12,SBD,1,
F,Wraps,Amateur Open,82.5,Kimberley Banas,79.92,127.01,56.7,145.15,328.85,SBD,1,
F,Raw,Amateur Open,100,Megan Chipman,99.88,127.01,63.5,142.88,333.39,SBD,1,
M,Raw,Amateur Juniors 20-23,60,Jake Copani,59.78,181.44,124.74,226.8,532.97,SBD,1,
M,Raw,Amateur Teen 18-19,60,Reed Portelli,58.69,156.49,104.33,176.9,437.72,SBD,1,
M,Wraps,Amateur Teen 18-19,67.5,Wayne Cook,66.41,142.88,92.99,176.9,412.77,SBD,1,
M,Raw,Amateur Teen 18-19,75,Al Marcantonio,73.48,167.83,136.08,206.38,510.29,SBD,1,
M,Raw,Amateur Juniors 20-23,75,Jacob Kandra,74.3,142.88,124.74,192.78,460.4,SBD,1,
M,Raw,Amateur Open,75,Brendan Schultz,73.66,142.88,88.45,226.8,458.13,SBD,1,
M,Raw,Amateur Open,75,Dylan Daruszka,74.21,133.81,115.67,199.58,449.06,SBD,2,
M,Wraps,Amateur Open,75,Steve Decker,74.03,192.78,133.81,233.6,560.19,SBD,1,
M,Wraps,Amateur Open,75,Mathew Maury,74.84,183.7,129.27,219.99,532.97,SBD,2,
M,Wraps,Amateur Open,75,Chris Rufino,73.75,156.49,104.33,199.58,460.4,SBD,3,
M,Raw,Amateur Submasters 33-39,75,Mathew Maury,74.84,183.7,129.27,219.99,532.97,SBD,1,
M,Raw,Amateur Teen 18-19,75,Stephen Geraci,72.67,151.95,77.11,183.7,412.77,SBD,2,
M,Wraps,Amateur Juniors 20-23,75,Thomas Munzert Jr,74.12,179.17,117.93,210.92,508.02,SBD,1,
M,Wraps,Amateur Masters 60-64,75,Gennady Fiksel,72.85,127.01,81.65,149.69,358.34,SBD,1,
M,Raw,Amateur Teen 16-17,82.5,Grant Michael,75.39,183.7,111.13,213.19,508.02,SBD,1,
M,Raw,Amateur Juniors 20-23,82.5,William Viviani III,82.01,113.4,136.08,165.56,415.04,SBD,1,
M,Raw,Amateur Open,82.5,Nick Murphy,79.29,,,,,SBD,DQ,
M,Raw,Amateur Open,82.5,Alex Delle Bovi,81.47,195.04,149.69,249.48,594.21,SBD,1,
M,Raw,Amateur Open,82.5,Russell Wayne,79.56,226.8,124.74,215.46,566.99,SBD,2,
M,Wraps,Amateur Juniors 20-23,82.5,John Otruba,77.84,,,,,SBD,DQ,
M,Wraps,Amateur Open,82.5,Marcus Morris,82.19,208.65,138.35,226.8,573.79,SBD,1,
M,Wraps,Amateur Open,82.5,Eric Kulba,81.92,201.85,127.01,233.6,562.45,SBD,2,
M,Wraps,Amateur Masters 40-44,82.5,Eric Kulba,81.92,201.85,127.01,233.6,562.45,SBD,1,
M,Wraps,Pro Juniors 20-23,82.5,Josh Straiton,75.66,215.46,165.56,233.6,614.62,SBD,1,
M,Wraps,Pro Open,82.5,Rob Blickenstaff,80.47,190.51,136.08,233.6,560.19,SBD,1,
M,Multi-ply,Amateur Juniors 20-23,82.5,TJ Dunsmoor,79.92,278.96,217.72,240.4,737.09,SBD,1,
M,Multi-ply,Amateur Open,82.5,TJ Dunsmoor,79.92,278.96,217.72,240.4,737.09,SBD,1,
M,Raw,Amateur Teen 18-19,90,Kyle Podolak,88.27,158.76,133.81,213.19,505.76,SBD,1,
M,Raw,Amateur Open,90,Antonino Balsano,86.09,167.83,102.06,204.12,474,SBD,5,
M,Raw,Amateur Juniors 20-23,90,Cory Blood,89.27,197.31,133.81,215.46,546.58,SBD,1,
M,Raw,Amateur Open,90,Patrick McGlone,82.83,170.1,124.74,226.8,521.63,SBD,2,
M,Raw,Amateur Open,90,Alec Raphael,88.72,158.76,106.59,210.92,476.27,SBD,4,
M,Raw,Amateur Open,90,Alfred Chow,88.99,190.51,131.54,222.26,544.31,SBD,1,
M,Raw,Amateur Open,90,Christopher Wu,88.72,167.83,142.88,204.12,514.83,SBD,3,
M,Raw,Military Amateur Open,90,Dennis J Bitetti,88.63,199.58,140.61,242.67,582.87,SBD,1,
M,Wraps,Amateur Teen 18-19,90,Anthony Stothard,89.36,142.88,99.79,192.78,435.45,SBD,1,
M,Wraps,Amateur Juniors 20-23,90,Cody George,87,197.31,149.69,219.99,566.99,SBD,1,
M,Wraps,Amateur Open,90,Josh Handen,88.54,199.58,140.61,215.46,555.65,SBD,1,
M,Wraps,Amateur Open,90,Moses Wajsman,88.27,163.29,102.06,249.48,514.83,SBD,2,
M,Wraps,Amateur Masters 50-54,90,Joe Wooley,89.63,142.88,120.2,183.7,446.79,SBD,1,
M,Wraps,Pro Open,90,Luke Bright,89.9,210.92,165.56,294.84,671.32,SBD,1,
M,Wraps,Pro Open,90,Craig Recore,89.63,204.12,138.35,274.42,616.89,SBD,2,
M,Wraps,Pro Masters 40-44,90,Craig Recore,89.63,204.12,138.35,274.42,616.89,SBD,1,
M,Multi-ply,Amateur Open,90,James Matta,88.81,285.76,258.55,240.4,784.71,SBD,1,
M,Multi-ply,Pro Masters 40-44,90,Kirk Dean,89.92,317.51,204.12,290.3,811.93,SBD,1,
M,Raw,Amateur Teen 18-19,100,Nathan Lambert,97.07,172.37,117.93,208.65,498.95,SBD,1,
M,Raw,Amateur Juniors 20-23,100,Brandon Schwan,97.25,210.92,158.76,272.16,641.83,SBD,1,
M,Raw,Amateur Open,100,Scott Greene,99.25,233.6,170.1,256.28,659.98,SBD,1,
M,Raw,Amateur Open,100,Brian Lelli,92.8,185.97,120.2,235.87,542.04,SBD,2,
M,Raw,Amateur Masters 40-44,100,Rick Church,97.61,176.9,136.08,208.65,521.63,SBD,1,
M,Raw,Military Amateur Open,100,Cole Howard Johnson,92.53,115.67,99.79,167.83,383.29,SBD,1,
M,Raw,Police Amateur Open,100,Jacob Vogt,99.25,195.04,147.42,224.53,566.99,SBD,1,
M,Raw,Police Amateur Open,100,Adam Hahnel,99.16,158.76,120.2,208.65,487.61,SBD,2,
M,Wraps,Amateur Juniors 20-23,100,Connor Hoagland,99.06,258.55,167.83,276.69,703.07,SBD,1,
M,Wraps,Amateur Open,100,Joshua Dubay,97.61,210.92,142.88,226.8,580.6,SBD,3,
M,Wraps,Amateur Open,100,Kevin Armbrust,98.16,206.38,120.2,226.8,553.38,SBD,5,
M,Wraps,Amateur Masters 50-54,100,Richard Rohde,99.7,192.78,149.69,215.46,557.92,SBD,1,
M,Wraps,Amateur Open,100,Nicholas Emmick,99.88,249.48,158.76,297.1,705.34,SBD,1,
M,Wraps,Amateur Open,100,Matthew Davis #12,98.25,204.12,170.1,249.48,623.69,SBD,2,
M,Wraps,Amateur Open,100,Jared Clark,98.25,170.1,138.35,249.48,557.92,SBD,4,
M,Wraps,Pro Open,100,Kyle Sheridan #1,99.43,308.44,161.03,328.85,798.32,SBD,1,
M,Wraps,Pro Open,100,Matt Goodfellow,97.61,206.38,131.54,242.67,580.6,SBD,2,
M,Multi-ply,Amateur Masters 40-44,110,Derek Barker #1,106.68,337.93,199.58,278.96,816.47,SBD,1,
M,Raw,Amateur Juniors 20-23,110,Tim Jakubiec,107.77,206.38,140.61,242.67,589.67,SBD,1,
M,Raw,Amateur Open,110,Nicholas Fiducia,107.5,183.7,133.81,240.4,557.92,SBD,1,
M,Wraps,Amateur Juniors 20-23,110,Tyler Whiteford,103.33,185.97,131.54,215.46,532.97,SBD,1,
M,Wraps,Amateur Open,110,Javaloa C Newport,108.41,249.48,147.42,283.5,680.39,SBD,1,
M,Wraps,Amateur Open,110,Brian R Keller,109.23,231.33,165.56,242.67,639.57,SBD,2,
M,Wraps,Pro Open,110,Dustin Olson,108.23,319.78,161.03,285.76,766.57,SBD,1,
M,Wraps,Pro Masters 40-44,110,Chris Nicolo,109.04,242.67,147.42,215.46,605.55,SBD,1,
M,Raw,Pro Juniors 20-23,125,Jeremy Crone,119.2,183.7,136.08,219.99,539.77,SBD,1,
M,Raw,Amateur Open,125,Jason Weaver #1,120.93,283.5,174.63,285.76,743.89,SBD,1,
M,Raw,Amateur Open,125,Paul Salvatore Mercurio,123.38,170.1,136.08,183.7,489.88,SBD,2,
M,Wraps,Amateur Juniors 20-23,125,Tyler Reasinger,114.76,233.6,142.88,294.84,671.32,SBD,1,
M,Wraps,Amateur Open,125,Zach Murphy #1,123.74,235.87,138.35,256.28,630.49,SBD,1,
M,Wraps,Amateur Open,125,Hanan Sokol,124.47,278.96,,,,SBD,DQ,
M,Wraps,Pro Open,125,Mike Lawrence #1,122.47,299.37,213.19,317.51,830.07,SBD,1,
M,Wraps,Pro Open,125,Pete Knutsen,122.56,276.69,165.56,324.32,766.57,SBD,2,
M,Wraps,Pro Open,125,Dominick Gonzalez,122.65,274.42,174.63,288.03,737.09,SBD,3,
M,Wraps,Pro Masters 50-54,125,Robb Francis,124.19,226.8,199.58,249.48,675.85,SBD,1,
M,Multi-ply,Pro Open,125,John Wiinikka,118.12,292.57,217.72,260.82,771.11,SBD,1,
M,Raw,Amateur Teen 18-19,140,Joe Stein,133.08,204.12,138.35,201.85,544.31,SBD,1,
M,Raw,Amateur Juniors 20-23,140,Tyler Winter,126.28,210.92,181.44,249.48,641.83,SBD,1,
M,Raw,Amateur Open,140,Thomas Fitzgerald,130.82,165.56,117.93,188.24,471.74,SBD,1,
M,Multi-ply,Amateur Open,140,Fred Seeburger,131.09,272.16,162.16,204.12,638.43,SBD,1,
M,Multi-ply,Amateur Masters 50-54,140,Fred Seeburger,131.09,272.16,162.16,204.12,638.43,SBD,1,
M,Wraps,Pro Open,140,Jordan Wolf,135.35,317.51,217.72,272.16,807.39,SBD,1,
M,Wraps,Pro Open,140,Joe Whitney,133.9,226.8,131.54,251.74,610.08,SBD,2,
M,Wraps,Military Pro Masters 50+,140,Jeffrey Linton,126.64,238.14,204.12,272.16,714.41,SBD,1,
M,Wraps,Pro Masters 50-54,140,Jeffrey Linton,126.64,238.14,204.12,272.16,714.41,SBD,1,
M,Raw,Amateur Submasters 33-39,75,Brad McElveen,74.21,,136.08,,136.08,B,1,
M,Multi-ply,Amateur Open,90,James Matta,88.81,,258.55,,258.55,B,1,
M,Single-ply,Amateur Masters 50+,100,Andrei Oudovikine,97.52,,208.65,,208.65,B,1,
M,Raw,Amateur Submasters 33-39,140+,Charles Lemon,148.69,,154.22,,154.22,B,1,
M,Raw,Amateur Open,140+,Mike Parsons,167.01,,199.58,,199.58,B,1,
M,Raw,Amateur Masters 65-69,110,Paul Bencal,103.6,,124.74,244.94,369.68,BD,1,
M,Raw,Amateur Submasters 33-39,140+,Charles Lemon,148.69,,154.22,188.24,342.46,BD,1,
M,Raw,Amateur Submasters 33-39,82.5,Vice Lujan,81.92,,,183.7,183.7,D,1,
M,Raw,Amateur Open,140,Al Velazquez,125.37,,,195.04,195.04,D,1,
