Division,WeightClassKg,Place,Name,Team,BodyweightKg,Best3SquatKg,Best3BenchKg,Best3DeadliftKg,TotalKg,Equipment,Event,Sex,BirthDate
Boys,51.71,1,John Garcia,New Caney,50.35,108.86,68.04,117.93,294.84,Single-ply,SBD,M,
Boys,51.71,2,Caden Eddleman,Magnolia,51.26,113.4,56.7,122.47,292.57,Single-ply,SBD,M,
Boys,51.71,3,Issac Cortinas,New Caney Porter,50.35,99.79,68.04,117.93,285.76,Single-ply,SBD,M,
Boys,51.71,4,Troy Hubbard,Waller,51.71,108.86,56.7,115.67,281.23,Single-ply,SBD,M,
Boys,51.71,5,Jase Calloway,Huffman Hargrave,48.99,102.06,52.16,108.86,263.08,Single-ply,SBD,M,
Boys,51.71,6,Camden Clark,Santa Fe,50.35,90.72,47.63,83.91,222.26,Single-ply,SBD,M,
Boys,55.79,1,Jesus Gomez,Somerville,54.88,145.15,81.65,140.61,367.41,Single-ply,SBD,M,
Boys,55.79,2,Luis Santillan,New Caney,55.79,136.08,79.38,147.42,362.87,Single-ply,SBD,M,
Boys,55.79,3,Nate Provost,Conroe The Woodlands,55.79,133.81,63.5,151.95,349.27,Single-ply,SBD,M,
Boys,55.79,4,Hank Hewgley,Conroe The Woodlands,55.34,131.54,79.38,131.54,342.46,Single-ply,SBD,M,
Boys,55.79,5,Boone Beyer,Magnolia,55.34,131.54,77.11,131.54,340.19,Single-ply,SBD,M,
Boys,55.79,6,Matt Provost,Conroe The Woodlands,55.79,140.61,54.43,142.88,337.93,Single-ply,SBD,M,
Boys,55.79,7,Darian Chambers,Magnolia,54.88,129.27,68.04,136.08,333.39,Single-ply,SBD,M,
Boys,55.79,8,Alandric Andrade,Brenham,55.34,120.2,65.77,147.42,333.39,Single-ply,SBD,M,
Boys,55.79,9,Trey Steffens,East Bernard,55.79,131.54,77.11,106.59,315.25,Single-ply,SBD,M,
Boys,55.79,10,Lukas Alvarez,Conroe The Woodlands,55.34,113.4,63.5,131.54,308.44,Single-ply,SBD,M,
Boys,55.79,11,Jacob Brown,Livingston,54.88,104.33,63.5,133.81,301.64,Single-ply,SBD,M,
Boys,55.79,12,Aron Shellhammer,Liberty,55.34,99.79,56.7,117.93,274.42,Single-ply,SBD,M,
Boys,55.79,DQ,Aiden Lafleur,Liberty,55.79,,,,,Single-ply,SBD,M,
Boys,55.79,DQ,Kole Joiner,La Marque,55.34,,,,,Single-ply,SBD,M,
Boys,59.87,1,Juan Chavez,New Caney,59.42,185.97,111.13,174.63,471.74,Single-ply,SBD,M,
Boys,59.87,2,Kameron Matthews,East Bernard,59.87,149.69,95.25,172.37,417.3,Single-ply,SBD,M,
Boys,59.87,3,Tahj Conner,New Caney,59.87,158.76,95.25,161.03,415.04,Single-ply,SBD,M,
Boys,59.87,4,Perfecto Hernandez,Pasadena Rayburn,59.87,151.95,99.79,161.03,412.77,Single-ply,SBD,M,
Boys,59.87,5,Dario Santillan,New Caney,57.15,138.35,106.59,161.03,405.97,Single-ply,SBD,M,
Boys,59.87,6,Erik Julio,Houston Northbrook,58.06,147.42,79.38,156.49,383.29,Single-ply,SBD,M,
Boys,59.87,7,Lance Thomas,Magnolia West,57.15,151.95,90.72,136.08,378.75,Single-ply,SBD,M,
Boys,59.87,8,Clayton Rhodes,Splendora,59.42,127.01,83.91,131.54,342.46,Single-ply,SBD,M,
Boys,59.87,9,Charles Brook,Livingston,59.87,99.79,52.16,117.93,269.89,Single-ply,SBD,M,
Boys,67.13,1,Joseph Flores,Huffman Hargrave,66.68,215.46,136.08,195.04,546.58,Single-ply,SBD,M,
Boys,67.13,2,Hunter Beamesderfer,Dayton,66.22,192.78,115.67,190.51,498.95,Single-ply,SBD,M,
Boys,67.13,3,Logan Hodges,Alvin,66.68,181.44,106.59,204.12,492.15,Single-ply,SBD,M,
Boys,67.13,4,Rodrigo Guerra,Conroe Oak Ridge,64.41,170.1,113.4,206.38,489.88,Single-ply,SBD,M,
Boys,67.13,5,Efren Ramirez,Alvin,65.77,192.78,115.67,181.44,489.88,Single-ply,SBD,M,
Boys,67.13,6,Jordan Anderson #1,New Caney,62.6,183.7,99.79,197.31,480.81,Single-ply,SBD,M,
Boys,67.13,7,Jesus Loya,Magnolia,66.22,179.17,102.06,192.78,474,Single-ply,SBD,M,
Boys,67.13,8,Mark Lopez,Baytown Goose Creek Memorial,66.68,188.24,106.59,170.1,464.93,Single-ply,SBD,M,
Boys,67.13,9,Tyler Higginbotham,Conroe The Woodlands,67.13,161.03,104.33,149.69,415.04,Single-ply,SBD,M,
Boys,67.13,10,Nick Johnson,Splendora,63.96,170.1,97.52,145.15,412.77,Single-ply,SBD,M,
Boys,67.13,11,Gabriel Mata,Houston Northbrook,67.13,142.88,79.38,181.44,403.7,Single-ply,SBD,M,
Boys,67.13,12,Kyle Wright,Livingston,60.78,136.08,81.65,149.69,367.41,Single-ply,SBD,M,
Boys,67.13,13,Bryce Trielle,Montgomery,67.13,131.54,95.25,138.35,365.14,Single-ply,SBD,M,
Boys,74.84,1,Spencer Holleman,New Caney Porter,74.39,226.8,129.27,199.58,555.65,Single-ply,SBD,M,
Boys,74.84,2,Robert Johnson,Pearland Dawson,73.03,213.19,122.47,195.04,530.7,Single-ply,SBD,M,
Boys,74.84,3,Weston Tuttle,Conroe The Woodlands,73.03,197.31,117.93,208.65,523.9,Single-ply,SBD,M,
Boys,74.84,4,Jacob Friedrich,Magnolia West,73.94,192.78,124.74,204.12,521.63,Single-ply,SBD,M,
Boys,74.84,5,Landon Thomas,Magnolia West,73.48,208.65,111.13,190.51,510.29,Single-ply,SBD,M,
Boys,74.84,6,Phillip Wimberly,Magnolia West,72.12,199.58,111.13,190.51,501.22,Single-ply,SBD,M,
Boys,74.84,7,David Wilkins,Conroe Grand Oaks,74.84,176.9,113.4,204.12,494.42,Single-ply,SBD,M,
Boys,74.84,8,Amir Johnson,Brenham,68.49,183.7,102.06,183.7,469.47,Single-ply,SBD,M,
Boys,74.84,9,Rian Torres,New Caney,74.84,170.1,129.27,165.56,464.93,Single-ply,SBD,M,
Boys,74.84,10,Joel Robles,New Caney Porter,73.94,185.97,104.33,170.1,460.4,Single-ply,SBD,M,
Boys,74.84,11,Sergio Hinojosa,Baytown Goose Creek Memorial,73.03,183.7,83.91,158.76,426.38,Single-ply,SBD,M,
Boys,74.84,DQ,Jose Ruiz,Pasadena,73.48,,,,,Single-ply,SBD,M,
Boys,74.84,DQ,Christopher Garcia,Santa Fe,73.94,,,,,Single-ply,SBD,M,
Boys,74.84,DQ,Casey Parker,Crosby,74.84,,,,,Single-ply,SBD,M,
Boys,82.1,1,Nathan Leone,Conroe The Woodlands,81.65,226.8,127.01,208.65,562.45,Single-ply,SBD,M,
Boys,82.1,2,Colton Smith #1,Conroe The Woodlands,80.74,215.46,117.93,215.46,548.85,Single-ply,SBD,M,
Boys,82.1,3,AJ Hirsekorn,Montgomery,81.65,208.65,136.08,204.12,548.85,Single-ply,SBD,M,
Boys,82.1,4,David Bush,Conroe Grand Oaks,80.29,208.65,127.01,190.51,526.17,Single-ply,SBD,M,
Boys,82.1,5,Zachery Boychi,New Caney,80.29,181.44,138.35,206.38,526.17,Single-ply,SBD,M,
Boys,82.1,6,Landon Leggett,Livingston,80.29,204.12,120.2,199.58,523.9,Single-ply,SBD,M,
Boys,82.1,7,Luke McClellan,Splendora,75.75,197.31,102.06,217.72,517.1,Single-ply,SBD,M,
Boys,82.1,8,Nick Moore #3,Lufkin,82.1,188.24,124.74,204.12,517.1,Single-ply,SBD,M,
Boys,82.1,9,Bryce Johnson #5,Baytown Goose Creek Memorial,79.83,201.85,104.33,208.65,514.83,Single-ply,SBD,M,
Boys,82.1,10,Nate King,Montgomery,81.19,190.51,124.74,197.31,512.56,Single-ply,SBD,M,
Boys,82.1,11,Mattox Hirsekorn,Montgomery,77.11,208.65,111.13,167.83,487.61,Single-ply,SBD,M,
Boys,82.1,12,Jaylen Myles,Navasota,76.66,204.12,83.91,165.56,453.59,Single-ply,SBD,M,
Boys,82.1,13,Titus Ellingsen,Huffman Hargrave,80.29,151.95,97.52,145.15,394.63,Single-ply,SBD,M,
Boys,82.1,DQ,Evan Dickerson,Pearland Dawson,82.1,,,,,Single-ply,SBD,M,
Boys,82.1,DQ,Ruel Hampton,Pearland Dawson,78.47,,,,,Single-ply,SBD,M,
Boys,82.1,DQ,Mark Garcia,Crosby,78.47,,,,,Single-ply,SBD,M,
Boys,82.1,DQ,Oscar Montogram,Houston Eisenhower,76.2,142.88,88.45,,,Single-ply,SBD,M,
Boys,89.81,1,Gavin Bennett,Dayton,89.81,226.8,145.15,244.94,616.89,Single-ply,SBD,M,
Boys,89.81,2,J Galvan,East Bernard,84.82,226.8,140.61,204.12,571.53,Single-ply,SBD,M,
Boys,89.81,3,Rodolfo Mayorquin,New Caney,84.37,217.72,133.81,213.19,564.72,Single-ply,SBD,M,
Boys,89.81,4,Zach Anderson,Montgomery,89.36,199.58,127.01,215.46,542.04,Single-ply,SBD,M,
Boys,89.81,5,Tanner Adams,Splendora,85.73,197.31,124.74,195.04,517.1,Single-ply,SBD,M,
Boys,89.81,6,Addison Pitts,Huffman Hargrave,86.64,206.38,102.06,190.51,498.95,Single-ply,SBD,M,
Boys,89.81,7,Russell Hasselmeir,Montgomery,86.64,199.58,97.52,188.24,485.34,Single-ply,SBD,M,
Boys,89.81,8,Glenn Ihde,Bay City,88,165.56,86.18,188.24,439.98,Single-ply,SBD,M,
Boys,89.81,9,Matthew Saburo,Houston Eisenhower,84.37,122.47,97.52,179.17,399.16,Single-ply,SBD,M,
Boys,89.81,DQ,Xavier Mindiola,Livingston,88.9,,,,,Single-ply,SBD,M,
Boys,89.81,DQ,Coby Riendeau,Crosby,88.9,,,,,Single-ply,SBD,M,
Boys,89.81,DQ,Xavier Alonzo,Baytown Goose Creek Memorial,86.64,181.44,,,,Single-ply,SBD,M,
Boys,89.81,DQ,Kameron Gatson,Houston Eisenhower,83.91,,,,,Single-ply,SBD,M,
Boys,99.79,1,Kc Ossai,Conroe Oak Ridge,98.88,263.08,151.95,265.35,680.39,Single-ply,SBD,M,
Boys,99.79,2,Leslie Williams #1,Montgomery,96.16,249.48,151.95,235.87,637.3,Single-ply,SBD,M,
Boys,99.79,3,Bryce Owens,Lufkin,99.34,222.26,147.42,244.94,614.62,Single-ply,SBD,M,
Boys,99.79,4,Ragis Fontenot,Liberty,91.63,226.8,145.15,226.8,598.74,Single-ply,SBD,M,
Boys,99.79,5,Jaylon Wyatt,Conroe Oak Ridge,97.52,213.19,151.95,222.26,587.4,Single-ply,SBD,M,
Boys,99.79,6,Shannon Richardson,Conroe,90.72,197.31,133.81,238.14,569.26,Single-ply,SBD,M,
Boys,99.79,7,Wyatt Kelley,Montgomery,94.35,197.31,147.42,210.92,555.65,Single-ply,SBD,M,
Boys,99.79,8,Nigel Henderson,Livingston,95.71,219.99,117.93,210.92,548.85,Single-ply,SBD,M,
Boys,99.79,9,Braden Wright,Crosby,97.98,219.99,124.74,204.12,548.85,Single-ply,SBD,M,
Boys,99.79,10,LaDainian Walker,Livingston,92.53,206.38,117.93,210.92,535.24,Single-ply,SBD,M,
Boys,99.79,11,Jaydon Harris,Liberty,98.43,195.04,117.93,208.65,521.63,Single-ply,SBD,M,
Boys,99.79,12,Joseph Sterling,Liberty,90.26,195.04,115.67,204.12,514.83,Single-ply,SBD,M,
Boys,99.79,13,Marco Mendoza,Navasota,91.63,197.31,99.79,197.31,494.42,Single-ply,SBD,M,
Boys,99.79,DQ,Canton Kempe,Santa Fe,96.62,,,,,Single-ply,SBD,M,
Boys,99.79,DQ,Jesus Romero,La Marque,95.71,,,,,Single-ply,SBD,M,
Boys,99.79,DQ,Jamauri Johnson,Crosby,91.63,,,,,Single-ply,SBD,M,
Boys,99.79,DQ,Kaden Jones,Crosby,99.34,,,,,Single-ply,SBD,M,
Boys,99.79,DQ,Hunter Delahoussaye,Montgomery,92.53,256.28,,,,Single-ply,SBD,M,
Boys,99.79,DQ,Logan Alpha,Splendora,97.07,,,,,Single-ply,SBD,M,
Boys,109.77,1,Donaven Jackson,Port Arthur Memorial,108.41,274.42,154.22,249.48,678.12,Single-ply,SBD,M,
Boys,109.77,2,Terrick Peterson,Liberty,108.86,258.55,154.22,229.06,641.83,Single-ply,SBD,M,
Boys,109.77,3,Jacob Harris,Conroe Oak Ridge,104.78,240.4,140.61,242.67,623.69,Single-ply,SBD,M,
Boys,109.77,4,Charlie Fox,Alvin,104.33,260.82,142.88,217.72,621.42,Single-ply,SBD,M,
Boys,109.77,5,Alec Genera,New Caney,109.32,254.01,158.76,208.65,621.42,Single-ply,SBD,M,
Boys,109.77,6,Mason Feldman,Magnolia,109.32,244.94,145.15,217.72,607.81,Single-ply,SBD,M,
Boys,109.77,7,Quadmond Irchirl,Conroe Woodlands College Park,104.78,219.99,120.2,242.67,582.87,Single-ply,SBD,M,
Boys,109.77,8,Chika Ordim,Houston Northbrook,103.42,238.14,106.59,235.87,580.6,Single-ply,SBD,M,
Boys,109.77,9,Quinton Harris,Houston Eisenhower,109.32,181.44,158.76,208.65,548.85,Single-ply,SBD,M,
Boys,109.77,10,Roshawn Calhoun,Port Arthur Memorial,107.05,224.53,111.13,208.65,544.31,Single-ply,SBD,M,
Boys,109.77,11,Christian Carranza,New Caney Porter,100.02,213.19,127.01,188.24,528.44,Single-ply,SBD,M,
Boys,109.77,12,Johnathan Edmiston,Montgomery,109.77,165.56,124.74,179.17,469.47,Single-ply,SBD,M,
Boys,109.77,13,Colton Jacobs,Huffman Hargrave,104.78,172.37,90.72,165.56,428.64,Single-ply,SBD,M,
Boys,109.77,14,Andres Bermudez,Bay City,101.6,154.22,95.25,136.08,385.55,Single-ply,SBD,M,
Boys,109.77,DQ,Noel Campos,Crosby,108.86,,,,,Single-ply,SBD,M,
Boys,124.74,1,Michael Galvez,Bay City,117.48,238.14,154.22,226.8,619.15,Single-ply,SBD,M,
Boys,124.74,2,Tristen Nabors,Santa Fe,116.12,235.87,140.61,226.8,603.28,Single-ply,SBD,M,
Boys,124.74,3,Jonathan Lopez,Pearland Dawson,120.66,235.87,115.67,238.14,589.67,Single-ply,SBD,M,
Boys,124.74,4,Marque Johnson #2,Conroe,120.66,219.99,133.81,206.38,560.19,Single-ply,SBD,M,
Boys,124.74,5,Cage Schultz,Santa Fe,123.38,238.14,129.27,188.24,555.65,Single-ply,SBD,M,
Boys,124.74,6,Casey McCoy,Crosby,112.94,219.99,120.2,204.12,544.31,Single-ply,SBD,M,
Boys,124.74,7,Justin Sniveley,Montgomery,121.11,204.12,133.81,204.12,542.04,Single-ply,SBD,M,
Boys,124.74,8,Jose Lopez,Navasota,120.66,210.92,104.33,206.38,521.63,Single-ply,SBD,M,
Boys,124.74,9,Christian Sagastegui,Crosby,111.13,190.51,129.27,192.78,512.56,Single-ply,SBD,M,
Boys,124.74,10,Isaac Allen,Bay City,121.56,197.31,120.2,190.51,508.02,Single-ply,SBD,M,
Boys,124.74,11,David Nunez,New Caney Porter,114.31,190.51,129.27,176.9,496.68,Single-ply,SBD,M,
Boys,124.74,12,Logan MacLennan,Bay City,114.31,183.7,111.13,201.85,496.68,Single-ply,SBD,M,
Boys,124.74,13,Tyler Anderson,Splendora,119.29,190.51,127.01,176.9,494.42,Single-ply,SBD,M,
Boys,124.74,14,Uriel Gomez,Pasadena,117.48,204.12,102.06,181.44,487.61,Single-ply,SBD,M,
Boys,124.74,15,Josh Marsh,Port Arthur Memorial,122.02,151.95,97.52,165.56,415.04,Single-ply,SBD,M,
Boys,124.74,16,Blake Frausto,Bay City,114.76,151.95,70.31,174.63,396.89,Single-ply,SBD,M,
Boys,124.74,DQ,Raymundo Rodriguez,Port Arthur Memorial,116.12,,,,,Single-ply,SBD,M,
Boys,124.74,DQ,Kevin Jernigen,Splendora,113.4,213.19,,,,Single-ply,SBD,M,
Boys,124.74,DQ,Hunter Pearson,Santa Fe,124.74,247.21,113.4,,,Single-ply,SBD,M,
Boys,124.74+,1,Cedric Harris,Magnolia,134.72,278.96,167.83,263.08,709.87,Single-ply,SBD,M,
Boys,124.74+,2,Anthony Martinez #8,New Caney,151.5,272.16,167.83,226.8,666.78,Single-ply,SBD,M,
Boys,124.74+,3,Lucas Tanton,Dayton,131.54,265.35,165.56,226.8,657.71,Single-ply,SBD,M,
Boys,124.74+,4,JR Schauer,East Bernard,136.98,249.48,176.9,231.33,657.71,Single-ply,SBD,M,
Boys,124.74+,5,Seth Sterns,Liberty,132,240.4,142.88,240.4,623.69,Single-ply,SBD,M,
Boys,124.74+,6,Riley Self,Lufkin,137.89,222.26,131.54,242.67,596.47,Single-ply,SBD,M,
Boys,124.74+,7,Gus Rice,Waller,145.6,222.26,131.54,242.67,596.47,Single-ply,SBD,M,
Boys,124.74+,8,Jy'Eric Houston,Navasota,142.43,215.46,102.06,170.1,487.61,Single-ply,SBD,M,
Boys,124.74+,DQ,Dale Martin,Splendora,156.49,226.8,145.15,,,Single-ply,SBD,M,
Boys,124.74+,DQ,Kobe Merida,La Marque,136.08,,,,,Single-ply,SBD,M,
Boys,124.74+,DQ,Sterling Mack,La Marque,130.63,,,,,Single-ply,SBD,M,
Boys,124.74+,DQ,Daniel Morris #2,Crosby,143.79,272.16,142.88,,,Single-ply,SBD,M,
