Sex,Name,Team,WeightClassKg,BodyweightKg,Squat1Kg,Squat2Kg,Squat3Kg,Best3SquatKg,Bench1Kg,Bench2Kg,Bench3Kg,Best3BenchKg,Deadlift1Kg,Deadlift2Kg,Deadlift3Kg,Best3DeadliftKg,TotalKg,Place,Equipment,Event,Division,BirthDate
F,Paulina Szymanel,PG Gdańsk,52,48.3,115,122.5,-127.5,122.5,70,72.5,75.5,75.5,130,140,145,145,343,1,Raw,SBD,Open,
F,Aleksandra Blajer,URz Rzeszów,52,50.9,122.5,127.5,131,131,65,70,76,76,125,132.5,-135,132.5,339.5,2,Raw,SBD,Open,
F,Angelika Jeziorska,PŚ Gliwice,52,51.5,60,65,70,70,30,35,-40,35,-75,85,90,90,195,3,Raw,SBD,Open,
F,Sylwia Piwowarczyk,UŁ Łódź,52,50.4,45,52.5,55,55,40,45,-47.5,45,55,65,70,70,170,4,Raw,SBD,Open,
F,Tamara Szlachta,UJ Kraków,52,51.3,50,-55,-60,50,35,37.5,-40,37.5,70,75,80,80,167.5,5,Raw,SBD,Open,
F,Angelika Ziółkowska,PP Poznań,47,45.3,45,47.5,-52.5,47.5,25,-27.5,-27.5,25,70,75,80,80,152.5,6,Raw,SBD,Open,
F,Karolina Nowok,UŚ Katowice,57,53.4,110,115,-120,115,50,-55,-55,50,110,-115,-115,110,275,12,Raw,SBD,Open,
F,Joanna Czekurłan,UWr Wrocław,57,54.4,125.5,130,133.5,133.5,90,95,-98,95,145,150,-155,150,378.5,1,Raw,SBD,Open,
F,Izabela Góralska,PWSZ Koszalin,57,52.1,132.5,-135.5,,132.5,68,70,73,73,155.5,161,166,166,371.5,2,Raw,SBD,Open,
F,Gabriela Blajer,URz Rzeszów,57,55,127.5,133,136,136,65,70,-72.5,70,132.5,137.5,-142.5,137.5,343.5,3,Raw,SBD,Open,
F,Inga Dynowska,UMe Lublin,57,56.9,112.5,117.5,120,120,65,67.5,70,70,152.5,-160.5,-160.5,152.5,342.5,4,Raw,SBD,Open,
F,Alicja Kowal,WSPiA Poznań,57,55.5,100,105,110,110,60,65,70,70,120,122.5,132.5,132.5,312.5,5,Raw,SBD,Open,
F,Julia Broź,UJ Kraków,57,56,100,105,-110,105,60,62.5,-65,62.5,125,130,-135,130,297.5,6,Raw,SBD,Open,
F,Julia Gejdel,PB Białystok,57,56.1,95,102.5,-110,102.5,47.5,52.5,-55,52.5,122.5,127.5,132.5,132.5,287.5,7,Raw,SBD,Open,
F,Kinga Kostrzewa,PB Białystok,57,55.7,95,100,105,105,52.5,55,57.5,57.5,110,115,120,120,282.5,8,Raw,SBD,Open,
F,Anna Szwędrys,UWM Olsztyn,57,56.2,100,-105,107.5,107.5,-60,-60,60,60,105,112.5,-117.5,112.5,280,9,Raw,SBD,Open,
F,Paulina Markiewicz,PO Opole,57,54.5,90,-95,-95,90,77.5,83,-85,83,95,100,105,105,278,10,Raw,SBD,Open,
F,Natalia Wencel,WSB Chorzów,57,56.5,100,107.5,-110,107.5,-57.5,57.5,60,60,100,110,-115,110,277.5,11,Raw,SBD,Open,
F,Klaudia Maciąg,UJK Kielce,57,55.3,100,107.5,-115,107.5,42.5,47.5,50,50,95,107.5,115,115,272.5,13,Raw,SBD,Open,
F,Diana Huczkowska,UPe Kraków,57,55.2,80,85,-90,85,57.5,60,-65,60,110,117.5,120,120,265,14,Raw,SBD,Open,
F,Magdalena Gomułkiewicz,UMe Łódź,57,56.5,100,105,-107.5,105,47.5,52.5,-55,52.5,100,-107.5,107.5,107.5,265,15,Raw,SBD,Open,
F,Sandra Łuniewska,UMo Gdynia,57,56.6,80,-85,87.5,87.5,47.5,50,52.5,52.5,105,115,120,120,260,16,Raw,SBD,Open,
F,Oliwia Kołodziejczyk,UE Katowice,57,56.6,60,-65,-72.5,60,27.5,-32.5,35,35,65,72.5,80,80,175,17,Raw,SBD,Open,
F,Monika Lisak,PWSZ Tarnów,57,54,45,55,-65,55,30,35,40,40,55,65,75,75,170,18,Raw,SBD,Open,
F,Izabela Bieniaszewska,UG Gdańsk,57,54.8,-45,-45,-45,,30,-35,-35,30,50,55,60,60,,DQ,Raw,SBD,Open,
F,Joanna Zagrodnik,UE Katowice,57,,,,,,,,,,,,,,,DQ,Raw,SBD,Open,
F,Klaudia Luterek,UPZ Zamość,57,,,,,,,,,,,,,,,DQ,Raw,SBD,Open,
F,Marika Zandecka,UAM Poznań,63,62.1,152.5,160,163,163,82.5,87.5,89.5,89.5,167.7,175,180.5,180.5,433,1,Raw,SBD,Open,
F,Klaudia Łącz,UMe Łódź,63,62.3,125,130,135,135,70,75,77.5,77.5,130,140,150,150,362.5,2,Raw,SBD,Open,
F,Magdalena Kwiatek,PRz Rzeszów,63,60.4,110,117.5,125,125,60,67.5,-75,67.5,107.5,117.5,125,125,317.5,3,Raw,SBD,Open,
F,Katarzyna Walczak,UAM Poznań,63,62.7,107.5,112.5,115,115,52.5,55,57.5,57.5,132.5,140,145,145,317.5,4,Raw,SBD,Open,
F,Angelika Gronowska,USz Szczecin,63,61.7,100,107.5,-110,107.5,55,-57.5,-57.5,55,140,-145,-145,140,302.5,5,Raw,SBD,Open,
F,Gabriela Pietraszek,UWM Olsztyn,63,58.1,95,100,-105,100,57.5,60,62.5,62.5,110,117.5,125,125,287.5,6,Raw,SBD,Open,
F,Magdalena Warakomska,PO Opole,63,62.8,110,115,120,120,45,-50,50,50,107.5,112.5,117.5,117.5,287.5,7,Raw,SBD,Open,
F,Paulina Dzięgielewska,PP Poznań,63,60,92.5,97.5,-102.5,97.5,47.5,55,-60,55,110,120,130,130,282.5,8,Raw,SBD,Open,
F,Wiktoria Miśkiewicz,UŁ Łódź,63,62,97.5,100,-105,100,57.5,-60,-60,57.5,115,120,125,125,282.5,9,Raw,SBD,Open,
F,Magdalena Bryk,SGH Warszawa,63,61.4,82.5,87.5,-92.5,87.5,45,47.5,-50,47.5,125,132.5,-137.5,132.5,267.5,10,Raw,SBD,Open,
F,Alicja Twaróg,AWF Kraków,63,60.8,-85,85,90,90,50,52.5,-55,52.5,110,115,120,120,262.5,11,Raw,SBD,Open,
F,Sandra Kieszkowska,UŁ Łódź,63,61.3,-102.5,102.5,-107.5,102.5,45,47.5,-50,47.5,110,-115,-117.5,110,260,12,Raw,SBD,Open,
F,Karolina Juszczak,PO Opole,63,57.9,87.5,92.5,95,95,50,52.5,55,55,95,100,105,105,255,13,Raw,SBD,Open,
F,Weronika Kawa,UPr Lublin,63,61.2,85,92.5,-100,92.5,40,42.5,-45,42.5,105,115,-117.5,115,250,14,Raw,SBD,Open,
F,Aleksandra Surus,UWr Wrocław,63,63,77.5,82.5,85,85,37.5,40,42.5,42.5,95,100,105,105,232.5,15,Raw,SBD,Open,
F,Gabriela Dadej,PWSZ Tarnów,63,60.3,-55,65,-80,65,45,-55,-55,45,80,95,110,110,220,16,Raw,SBD,Open,
F,Emilia Siłuszyk,AWF Kraków,63,60.6,45,55,65,65,45,55,60,60,80,95,-110,95,220,17,Raw,SBD,Open,
F,Wiktoria Galos,AWF Kraków,63,60.5,-60,-62.5,62.5,62.5,40,42.5,45,45,-105,105,-112.5,105,212.5,18,Raw,SBD,Open,
F,Angelika Szaro,UPe Kraków,72,63.9,90,-97.5,-102.5,90,-62.5,-62.5,-62.5,,132.5,-140,,132.5,,DQ,Raw,SBD,Open,
F,Alicja Klińska,PG Gdańsk,72,70.7,120,127.5,135,135,62.5,67.5,70,70,155,170,180.5,180.5,385.5,1,Raw,SBD,Open,
F,Justyna Turek,URo Kraków,72,66.8,130,135,137.5,137.5,75,-77.5,,75,155,-165,-165,155,367.5,2,Raw,SBD,Open,
F,Joanna Lenart,UEK Kraków,72,69,125,130,-135,130,62.5,67.5,-70,67.5,140,145,150,150,347.5,3,Raw,SBD,Open,
F,Julia Kulczycka,PG Gdańsk,72,69.7,120,127.5,-132.5,127.5,70,-75,-75,70,135,-142.5,142.5,142.5,340,4,Raw,SBD,Open,
F,Magdalena Ziętek,UTH Radom,72,70,127.5,-132.5,-132.5,127.5,55,-60,-60,55,140,145,150,150,332.5,5,Raw,SBD,Open,
F,Katarzyna Derlatka,UMe Łódź,72,68.9,115,122.5,-127.5,122.5,55,57.5,-60,57.5,125,135,145,145,325,6,Raw,SBD,Open,
F,Nina Stawska,UPr Lublin,72,70.7,92.5,100,115,115,55,-65,-65,55,130,140,147.5,147.5,317.5,7,Raw,SBD,Open,
F,Aleksandra Milczarek,UAM Poznań,72,70.8,-127.5,127.5,130,130,47.5,50,-52.5,50,-137.5,-137.5,137.5,137.5,317.5,8,Raw,SBD,Open,
F,Aleksandra Iwanek,UMCS Lublin,72,68.3,100,-105,105,105,70,-77.5,-77.5,70,130,135,140,140,315,9,Raw,SBD,Open,
F,Edyta Marciniszyn,USz Szczecin,72,63.9,105,112.5,117.5,117.5,62.5,-65,65,65,110,120,130,130,312.5,10,Raw,SBD,Open,
F,Anita Słomska,KUL Lublin,72,70.9,105,-110,110,110,55,60,,60,120,130,140,140,310,11,Raw,SBD,Open,
F,Justyna Labun,AWFiS Gdańsk,72,66.9,110,115,-120,115,67.5,-70,70,70,122.5,-130,-130,122.5,307.5,12,Raw,SBD,Open,
F,Agata Ceranowska,UMe Łódź,72,70,110,115,-120,115,65,67.5,70,70,110,120,-125,120,305,13,Raw,SBD,Open,
F,Paulina Randzio,UWM Olsztyn,72,65.4,102.5,110,-115,110,50,52.5,-55,52.5,120,125,-130,125,287.5,14,Raw,SBD,Open,
F,Hanna Hapel,UG Gdańsk,72,71,80,90,-100,90,47.5,52.5,-57.5,52.5,95,105,115,115,257.5,15,Raw,SBD,Open,
F,Katarzyna Głódkowska,UG Gdańsk,72,70.6,70,80,90,90,37.5,42.5,45,45,90,100,120,120,255,16,Raw,SBD,Open,
F,Martyna Stanosz,PWSZ Tarnów,72,68.3,80,90,-100,90,40,45,50,50,80,90,102.5,102.5,242.5,17,Raw,SBD,Open,
F,Julia Ostapiuk,KUL Lublin,72,72,50,65,80,80,37.5,45,-50,45,70,90,105,105,230,18,Raw,SBD,Open,
F,Magdalena Knak,PG Gdańsk,72,65.5,85,90,-92.5,90,37.5,40,-45,40,-95,95,-100,95,225,19,Raw,SBD,Open,
F,Agata Sałamacha,UPZ Zamość,72,71.3,75,80,-82.5,80,40,42.5,45,45,90,95,100,100,225,20,Raw,SBD,Open,
F,Abigail McLean,SGGW Warszawa,84,83.2,145,155,160,160,80,85,90,90,180,191,201,201,451,1,Raw,SBD,Open,
F,Joanna Sałek,UJ Kraków,84,82.9,140,152.5,162.5,162.5,80,-85,-85,80,165,175,185,185,427.5,2,Raw,SBD,Open,
F,Katarzyna Kapuśniak,UKSW Warszawa,84,77.7,115,122.5,-132.5,122.5,67.5,-70,-70,67.5,145,152.5,-155,152.5,342.5,3,Raw,SBD,Open,
F,Kaja Orzechowska,PŚ Gliwice,84,81.5,115,125,130,130,45,50,55,55,125,135,140,140,325,4,Raw,SBD,Open,
F,Gabriela Piątek,PWSZ Tarnów,84,82.2,70,90,-105,90,55,65,70,70,100,120,140,140,300,5,Raw,SBD,Open,
F,Anna Wilmanowicz,UWM Olsztyn,84,74.6,105,110,115,115,47.5,52.5,-60,52.5,110,122.5,-132.5,122.5,290,6,Raw,SBD,Open,
F,Marlena Wronka,UMe Łódź,84+,121.30,-137.5,137.5,145,145,75,77.5,-80.5,77.5,142.5,150,-157.5,150,372.5,1,Raw,SBD,Open,
F,Paulina Kozioł,PWSZ Tarnów,84+,94.50,55,65,75,75,35,45,-50,45,70,85,90,90,210,2,Raw,SBD,Open,
M,Karol Draganik,UWr Wrocław,59,56.60,130,135,140,140,77.5,82.5,87.5,87.5,162.5,170,175,175,402.5,1,Raw,SBD,Open,
M,Błażej Tkacz,UJK Kielce,59,59.00,130,135,-140,135,80,85,-90,85,150,160,170,170,390,2,Raw,SBD,Open,
M,Kamil Charkot,UPr Lublin,59,58.50,-120,120,-130,120,75,-82.5,82.5,82.5,140,-150,-150,140,342.5,3,Raw,SBD,Open,
M,Piotr Żmuda,AGH Kraków,59,58.00,95,110,117.5,117.5,75,80,85,85,115,-140,-140,115,317.5,4,Raw,SBD,Open,
M,Kamil Linstedt,PG Gdańsk,66,65.60,190,-200,-200,190,105,110,,110,200,207.5,212.5,212.5,512.5,1,Raw,SBD,Open,
M,Kacper Kwiatkowski,USz Szczecin,66,64.40,142.5,147.5,-157.5,147.5,-112.5,112.5,120,120,185,192.5,-205,192.5,460,2,Raw,SBD,Open,
M,Kamil Sacharczuk,KUL Lublin,66,63.60,-140,150,-160,150,90,95,-97.5,95,-180,180,190,190,435,3,Raw,SBD,Open,
M,Piotr Jaworski,UAM Poznań,66,62.30,145,-152.5,-152.5,145,80,-85,-85,80,170,177.5,185,185,410,4,Raw,SBD,Open,
M,Michał Fila,SGH Warszawa,66,,,,,,,,,,,,,,,DQ,Raw,SBD,Open,
M,Kamil Drzymała,PŚ Gliwice,74,73.50,-200,200,210,210,-145,145,150,150,220,-230,-230,220,580,1,Raw,SBD,Open,
M,Rafał Łazicki,WAT Warszawa,74,73.70,195,205,-212.5,205,130,135,-137.5,135,225,235,-242.5,235,575,2,Raw,SBD,Open,
M,Wojciech Rokowski,AGH Kraków,74,71.70,190,-200,205,205,117.5,125,-132.5,125,210,225,240,240,570,3,Raw,SBD,Open,
M,Kazimierz Daszkiewicz,PW Warszawa,74,73.70,182.5,195,200,200,125,132.5,-137.5,132.5,212.5,220,230,230,562.5,4,Raw,SBD,Open,
M,Kamil Światły,UAM Poznań,74,74.00,182.5,192.5,200,200,125,130,135,135,205,-217.5,222.5,222.5,557.5,5,Raw,SBD,Open,
M,Adam Chudaś,UWr Wrocław,74,73.10,-175,180,190,190,100,105,110,110,230,-240,250,250,550,6,Raw,SBD,Open,
M,Stanisław Chodorowski,UEK Kraków,74,72.30,192.5,200,-205,200,100,105,-110,105,-215,215,225,225,530,7,Raw,SBD,Open,
M,Dominik Nowogórski,UJ Kraków,74,73.10,180,-187.5,187.5,187.5,115,120,-122.5,120,195,202.5,-207.5,202.5,510,8,Raw,SBD,Open,
M,Michał Gwoździk,UE Katowice,74,73.10,172.5,177.5,182.5,182.5,-105,-105,105,105,195,-200,-200,195,482.5,9,Raw,SBD,Open,
M,Mateusz Rokicki,UWM Olsztyn,74,72.40,155,-165,-170,155,125,130,-135,130,-180,180,195,195,480,10,Raw,SBD,Open,
M,Dominik Łakoma,PWSZ Tarnów,74,72.80,-155,155,-165,155,105,110,-117.5,110,185,192.5,202.5,202.5,467.5,11,Raw,SBD,Open,
M,Hubert Balant,SGH Warszawa,74,70.30,160,-175,-175,160,110,-120,-120,110,165,-175,175,175,445,12,Raw,SBD,Open,
M,Jakub Otlewski,UMo Gdynia,74,73.80,127.5,135,142.5,142.5,92.5,-100,-100,92.5,160,170,180,180,415,13,Raw,SBD,Open,
M,Michał Chrzanowski,URz Rzeszów,74,73.20,-125,-130,130,130,90,95,100,100,155,165,170,170,400,14,Raw,SBD,Open,
M,Jakub Kaźmierczak,UMo Gdynia,74,72.70,115,125,-135,125,-100,100,-105,100,140,160,-170,160,385,15,Raw,SBD,Open,
M,Jan Matwiejczuk,UG Gdańsk,74,72.40,100,120,140,140,-90,90,100,100,-120,120,140,140,380,16,Raw,SBD,Open,
M,Yurii Boiko,WSB Poznań,74,71.20,100,110,120,120,80,90,-95,90,115,130,150,150,360,17,Raw,SBD,Open,
M,Piotr Przybek,PWSZ Tarnów,74,72.10,-130,130,-145,130,80,-95,-95,80,130,-140,140,140,350,18,Raw,SBD,Open,
M,Tomasz Balewicz,PO Opole,74,72.10,-215,-215,-215,,120,,,120,240,258.5,-265,258.5,,DQ,Raw,SBD,Open,
M,Wojciech Sochacki,AGH Kraków,74,73.50,-185,-185,-185,,,,,,,,,,,DQ,Raw,SBD,Open,
M,Daniel Ilczyszyn,WAT Warszawa,83,82.50,245,260,-265,260,172.5,180,-185.5,180,255,-270,270,270,710,1,Raw,SBD,Open,
M,Marcin Statkiewicz,AMW Gdynia,83,82.70,205,215,220,220,127.5,135,140,140,260,,273.5,273.5,633.5,2,Raw,SBD,Open,
M,Sebastian Sądej,PWSZ Legnica,83,82.10,210,217.5,-222.5,217.5,152.5,157.5,-162.5,157.5,225,232.5,-237.5,232.5,607.5,3,Raw,SBD,Open,
M,Konrad Barczykowski,UE Wrocław,83,81.30,217.5,227.5,-232.5,227.5,130,137.5,-142.5,137.5,220,235,-242.5,235,600,4,Raw,SBD,Open,
M,Karol Budziwół,URz Rzeszów,83,81.30,200,210,-215,210,135,145,150,150,220,230,-235,230,590,5,Raw,SBD,Open,
M,Mateusz Tchorek,PUSS Piła,83,81.30,190,200,205,205,150,160,-170,160,190,205,-215,205,570,6,Raw,SBD,Open,
M,Tomek Roś,UMo Gdynia,83,79.10,177.5,187.5,197.5,197.5,140,-145,-145,140,230,-235,-240,230,567.5,7,Raw,SBD,Open,
M,Wiktor Kubis,UŚ Katowice,83,79.00,175,182.5,195,195,117.5,122.5,125,125,235,245,-250,245,565,8,Raw,SBD,Open,
M,Daniel Przybysz,PG Gdańsk,83,80.70,200,210,215,215,125,-135,-135,125,210,217.5,225,225,565,9,Raw,SBD,Open,
M,Marcin Mostowski,UŁ Łódź,83,82.60,190,200,-202.5,200,122.5,127.5,132.5,132.5,215,222.5,230,230,562.5,10,Raw,SBD,Open,
M,Damian Boguszewicz,UWM Olsztyn,83,81.20,-200,200,-205,200,130,135,-140,135,210,220,-225,220,555,11,Raw,SBD,Open,
M,Michał Pająk,UMe Łódź,83,82.00,192.5,197.5,-200,197.5,-110,110,-115,110,230,247.5,-252.5,247.5,555,12,Raw,SBD,Open,
M,Maksym Krupa,AGH Kraków,83,81.00,185,200,-210,200,-140,-142.5,142.5,142.5,-180,180,210,210,552.5,13,Raw,SBD,Open,
M,Karol Dyrek,WAT Warszawa,83,82.90,185,195,200,200,105,110,112.5,112.5,225,235,-240,235,547.5,14,Raw,SBD,Open,
M,Paweł Chrzanowski,UŁ Łódź,83,82.70,190,200,205,205,112.5,,115,115,200,210,217.5,217.5,537.5,15,Raw,SBD,Open,
M,Kamil Rzóska,UWM Olsztyn,83,83.00,200,205,210,210,100,107.5,110,110,200,210,217.5,217.5,537.5,16,Raw,SBD,Open,
M,Rafał Zaremba,UJ Kraków,83,78.00,-182.5,182.5,192.5,192.5,132.5,-137.5,-137.5,132.5,200,-210,-212.5,200,525,17,Raw,SBD,Open,
M,Bartosz Kawala,UŚ Katowice,83,81.10,180,185,192.5,192.5,110,117.5,-125,117.5,-215,-215,215,215,525,18,Raw,SBD,Open,
M,Hugo Urbańczyk,AGH Kraków,83,77.30,-170,170,180,180,110,115,120,120,205,215,222.5,222.5,522.5,19,Raw,SBD,Open,
M,Hubert Kłak,UJ Kraków,83,81.70,150,160,170,170,-172.5,172.5,-185.5,172.5,170,180,,180,522.5,20,Raw,SBD,Open,
M,Emilian Narożny,UWM Olsztyn,83,81.90,175,-185,185,185,105,110,-115,110,210,220,-225,220,515,21,Raw,SBD,Open,
M,Aleks Galka,UWr Wrocław,83,81.60,160,165,170,170,115,120,-122.5,120,205,-215,220,220,510,22,Raw,SBD,Open,
M,Konrad Królikowski,UEK Kraków,83,81.70,152.5,160,,160,-127.5,130,,130,210,220,,220,510,23,Raw,SBD,Open,
M,Daniel Krawczyk,KUL Lublin,83,82.70,160,170,-175,170,110,115,-120,115,210,-220,220,220,505,24,Raw,SBD,Open,
M,Maciej Majchrzak,UWM Olsztyn,83,81.90,160,-170,172.5,172.5,115,120,125,125,190,-200,-200,190,487.5,25,Raw,SBD,Open,
M,Szymon Wiatrowski,UMo Gdynia,83,80.50,140,150,162.5,162.5,105,110,115,115,180,190,195,195,472.5,26,Raw,SBD,Open,
M,Szymon Zawadzki,Eryk PB,83,79.2,135,150,-155,150,110,-120,-120,110,-190,190,205,205,465,27,Raw,SBD,Open,
M,Krzysztof Bocheński,UPr Lublin,83,75.00,145,-155,160,160,100,105,-110,105,185,195,-205,195,460,28,Raw,SBD,Open,
M,Wiktor Gamroth,PO Opole,83,77.70,120,130,-135,130,80,-85,-85,80,160,170,180,180,390,30,Raw,SBD,Open,
M,Jakub Marek,PWSZ Tarnów,83,80.30,90,115,130,130,75,100,110,110,130,150,-170,150,390,31,Raw,SBD,Open,
M,Marcin Radwan,PWSZ Tarnów,83,79.10,90,110,127.5,127.5,90,100,-110,100,120,140,-160,140,367.5,32,Raw,SBD,Open,
M,Marcin Chłosta,PWSZ Tarnów,83,81.30,95,115,-140,115,80,-90,-90,80,100,130,150,150,345,33,Raw,SBD,Open,
M,Dawid Stachowski,PWSZ Nysa,83,78.90,120,130,140,140,100,-105,105,105,160,170,175,175,420,29,Raw,SBD,Open,
M,Patryk Tulibacki,UŚ Katowice,83,76.20,160,165,170,170,-125,-125,-125,,170,180,-190,180,,DQ,Raw,SBD,Open,
M,Michał Hawra,UWr Wrocław,83,81.10,100,-110,-110,100,-92.5,-92.5,-92.5,,-130,130,-140,130,,DQ,Raw,SBD,Open,
M,Ernest Bil,KUL Lublin,83,81.50,205,210,215,215,-135,-135,-135,,-210,,,,,DQ,Raw,SBD,Open,
M,Wojciech Dąbrowski,UŚ Katowice,83,82.70,-215,-215,-220,,,,,,,,,,,DQ,Raw,SBD,Open,
M,Andrzej Krawontka,AGH Kraków,93,86.00,-235,240,250,250,145,152.5,-155,152.5,250,265,270,270,672.5,1,Raw,SBD,Open,
M,Sławomir Nowak,WSB Wrocław,93,92.50,-225,235,247.5,247.5,160,170,-175,170,225,242.5,252.5,252.5,670,2,Raw,SBD,Open,
M,Patryk Zaniewski,PW Warszawa,93,93.00,235,242.5,-250,242.5,165,-172.5,-172.5,165,250,262.5,-272.5,262.5,670,3,Raw,SBD,Open,
M,Mariusz Świderski,PWSZ Kalisz,93,90.30,205,220,230,230,127.5,135,142.5,142.5,220,240,260,260,632.5,4,Raw,SBD,Open,
M,Dziamid Kolas,USz Szczecin,93,89.60,210,217.5,-225,217.5,145,150,-155,150,260,-270,,260,627.5,5,Raw,SBD,Open,
M,Patryk Bartnicki,UAM Poznań,93,93.00,215,230,-242.5,230,122.5,127.5,130,130,237.5,250,255,255,615,6,Raw,SBD,Open,
M,Marcin Oleś,ŚWSM Katowice,93,88.10,210,220,-225,220,150,155,-160,155,215,225,230,230,605,7,Raw,SBD,Open,
M,Paweł Zadrożny,UG Gdańsk,93,88.50,190,200,205,205,130,137.5,-140,137.5,240,-250,250,250,592.5,8,Raw,SBD,Open,
M,Piotr Janiszewski,PP Poznań,93,89.50,200,-215,-215,200,130,140,150,150,210,230,-255,230,580,9,Raw,SBD,Open,
M,Marceli Jerzyński,PP Poznań,93,91.40,205,215,225,225,120,130,-137.5,130,210,225,-240,225,580,10,Raw,SBD,Open,
M,Paweł Wesołowski,UMe Lublin,93,91.40,185,195,205,205,-130,-137.5,137.5,137.5,200,215,230,230,572.5,11,Raw,SBD,Open,
M,Mateusz Gajos,PG Gdańsk,93,91.10,180,190,-195,190,120,125,130,130,235,250,-260,250,570,12,Raw,SBD,Open,
M,Patryk Zapała,UJ Kraków,93,91.10,-192.5,195,205,205,125,132.5,-137.5,132.5,-230,230,-237.5,230,567.5,13,Raw,SBD,Open,
M,Mateusz Szymański,WAT Warszawa,93,89.20,205,215,220,220,115,125,-130,125,215,-220,-220,215,560,14,Raw,SBD,Open,
M,Wojciech Orlikowski,PO Opole,93,91.90,-195,-195,195,195,125,132.5,-137.5,132.5,210,220,230,230,557.5,15,Raw,SBD,Open,
M,Damian Szczygielski,PP Poznań,93,87.50,170,185,192.5,192.5,127.5,135,140,140,200,-215,220,220,552.5,16,Raw,SBD,Open,
M,Krystian Kopka,UWM Olsztyn,93,91.10,180,-190,-190,180,-130,135,-137.5,135,230,-240,-240,230,545,17,Raw,SBD,Open,
M,Adam Hałajko,PO Opole,93,90.40,180,187.5,195,195,130,137.5,142.5,142.5,180,190,200,200,537.5,18,Raw,SBD,Open,
M,Rafał Sarnecki,UPr Lublin,93,90.80,180,190,195,195,130,-137.5,137.5,137.5,180,190,205,205,537.5,19,Raw,SBD,Open,
M,Bartłomiej Kondracki,SGH Warszawa,93,90.40,165,172.5,177.5,177.5,122.5,-127.5,-127.5,122.5,230,-240,-240,230,530,20,Raw,SBD,Open,
M,Kamil Cichoń,AGH Kraków,93,91.70,160,170,180,180,132.5,142.5,-150,142.5,190,195,-200,195,517.5,21,Raw,SBD,Open,
M,Piotr Żarkowski,UEK Kraków,93,89.80,160,170,175,175,-117.5,117.5,-122.5,117.5,210,220,-230,220,512.5,22,Raw,SBD,Open,
M,Piotr Próchnik,PWSZ Tarnów,93,89.00,145,155,165,165,100,115,125,125,180,200,220,220,510,23,Raw,SBD,Open,
M,Arkadiusz Jakubczak,UG Gdańsk,93,92.70,-180,185,-200,185,-110,-110,110,110,205,215,-230,215,510,25,Raw,SBD,Open,
M,Dominik Nizgorski,UWM Olsztyn,93,90.20,170,180,-187.5,180,-110,110,117.5,117.5,190,200,-210,200,497.5,26,Raw,SBD,Open,
M,Jakub Jakubowski,PB Białystok,93,91.30,180,190,-210,190,85,90,-95,90,170,185,200,200,480,27,Raw,SBD,Open,
M,Michał Okoński,UMCS Lublin,93,88.00,140,150,-155,150,120,125,130,130,185,195,197.5,197.5,477.5,28,Raw,SBD,Open,
M,Błażej Karwowski,WSB Poznań,93,89.10,160,167.5,-175,167.5,105,115,-120,115,170,182.5,195,195,477.5,29,Raw,SBD,Open,
M,Hubert Nowakowski,PP Poznań,93,90.90,150,160,170,170,117.5,-120,120,120,160,-185,185,185,475,30,Raw,SBD,Open,
M,Daniel Pytel,ŚWSM Katowice,93,87.10,-155,160,170,170,107.5,112.5,117.5,117.5,180,-190,-190,180,467.5,31,Raw,SBD,Open,
M,Mateusz Gołębiowski,UMo Gdynia,93,83.30,150,160,-170,160,-105,105,-112.5,105,180,190,-200,190,455,32,Raw,SBD,Open,
M,Kamil Mokrzyński,UŚ Katowice,93,91.20,150,160,,160,100,110,-120,110,150,160,,160,430,33,Raw,SBD,Open,
M,Artur Plath,UG Gdańsk,93,90.10,120,130,-140,130,100,-110,-110,100,160,-180,180,180,410,34,Raw,SBD,Open,
M,Wojciech Romanowski,KUL Lublin,93,89.30,-30,-30,,,,,,,,,,,,DQ,Raw,SBD,Open,
M,Bartosz Roszer,Akademia WSB,93,91.30,205,-210,-210,205,165,-170,-170,165,-210,-210,-210,,,DQ,Raw,SBD,Open,
M,Kamil Kurpanik,PŚ Gliwice,93,91.40,-220,-220,-220,,-120,120,-125,120,220,-227.5,-227.5,220,,DQ,Raw,SBD,Open,
M,Rafał Nowicki,PWSZ Nysa,93,91.80,180,195,-205,195,110,-115,-120,110,180,-200,205,205,510,24,Raw,SBD,Open,
M,Tomasz Kubik,UE Katowice,105,98.80,160,170,175,175,110,115,120,120,180,190,200,200,495,27,Raw,SBD,Open,
M,Marcin Lange,UMo Gdynia,105,101.10,250,260,-270,260,180,185,190,190,265,272.5,-280,272.5,722.5,1,Raw,SBD,Open,
M,Szymon Grzelak,WSB Toruń,105,103.60,245,-255,260,260,-145,145,-152.5,145,275,290,-300,290,695,2,Raw,SBD,Open,
M,Artur Łapata,PB Białystok,105,100.70,240,250,265,265,160,170,175,175,235,250,-265,250,690,3,Raw,SBD,Open,
M,Mateusz Kumański,UJK Kielce,105,103.80,230,250,260,260,150,-160,-160,150,245,255,-270,255,665,4,Raw,SBD,Open,
M,Arkadiusz Reszczyński,SGGW Warszawa,105,103.30,240,-250,-250,240,145,152.5,-157.5,152.5,250,-257.5,-257.5,250,642.5,5,Raw,SBD,Open,
M,Bazyli Kicia,UMe Łódź,105,101.40,190,205,215,215,155,165,,165,240,260,-275,260,640,6,Raw,SBD,Open,
M,Łukasz Topór,PP Poznań,105,102.00,215,230,235,235,152.5,160,165,165,240,-260,-260,240,640,7,Raw,SBD,Open,
M,Dawid Dereń,UE Wrocław,105,104.90,-235,-242.5,255,255,127.5,135,-140,135,250,-270,-270,250,640,8,Raw,SBD,Open,
M,Patryk Raczyński,UMe Łódź,105,101.40,195,210,220,220,160,170,180,180,200,220,230,230,630,9,Raw,SBD,Open,
M,Dawid Dominiak,UŁ Łódź,105,101.80,200,215,220,220,147.5,155,,155,235,250,-260,250,625,10,Raw,SBD,Open,
M,Filip Kuczma,UEK Kraków,105,101.50,222.5,230,235,235,152.5,157.5,-162.5,157.5,-227.5,227.5,-240,227.5,620,11,Raw,SBD,Open,
M,Wojciech Groth,PG Gdańsk,105,102.40,190,200,207.5,207.5,155,162.5,-165,162.5,240,250,-255,250,620,12,Raw,SBD,Open,
M,Tomasz Kolbusz,AGH Kraków,105,99.10,200,212.5,220,220,132.5,137.5,142.5,142.5,240,250,-257.5,250,612.5,13,Raw,SBD,Open,
M,Adam Sota,UJ Kraków,105,98.00,-210,210,215,215,155,160,162.5,162.5,210,220,-225,220,597.5,14,Raw,SBD,Open,
M,Dominik Pawelec,UAM Poznań,105,104.80,202.5,212.5,-217.7,212.5,125,130,135,135,220,235,240,240,587.5,15,Raw,SBD,Open,
M,Mateusz Koralewicz,UMe Łódź,105,100.80,185,195,-200,195,145,150,,150,220,230,235,235,580,16,Raw,SBD,Open,
M,Jakub Pałachniak,PŚ Gliwice,105,102.90,210,222.5,-230,222.5,130,137.5,-145,137.5,190,205,217.5,217.5,577.5,17,Raw,SBD,Open,
M,Damian Gawrjołek,KUL Lublin,105,96.30,205,215,225,225,120,125,-130,125,205,215,225,225,575,18,Raw,SBD,Open,
M,Sebastian Kruk,Marcin KUL,105,104.3,175,185,192.5,192.5,142.5,145,150,150,210,220,,220,562.5,21,Raw,SBD,Open,
M,Krzysztof Kopeć,UEK Kraków,105,99.30,200,210,220,220,115,120,-127.5,120,230,-240,-240,230,570,20,Raw,SBD,Open,
M,Krystian Onyszko,WSR Warszawa,105,103.00,180,-195,200,200,120,-130,-130,120,230,240,-250,240,560,22,Raw,SBD,Open,
M,Andrzej Rzepiela,PO Opole,105,94.10,190,200,-205,200,120,125,-130,125,215,225,-235,225,550,23,Raw,SBD,Open,
M,Filip Kulesza,WSEiT Poznań,105,102.80,185,195,205,205,115,122.5,-130,122.5,200,212.5,-222.5,212.5,540,24,Raw,SBD,Open,
M,Mateusz Jankowski,UŚ Katowice,105,95.30,170,185,-200,185,135,142.5,-150,142.5,-195,195,210,210,537.5,25,Raw,SBD,Open,
M,Paweł Trzciński,AMo Szczecin,105,98.70,180,190,200,200,-125,125,130,130,180,200,-210,200,530,26,Raw,SBD,Open,
M,Adrian Mianowski,SGGW Warszawa,105,98.40,-140,140,160,160,110,120,-130,120,180,210,-230,210,490,28,Raw,SBD,Open,
M,Jakub Orzepowski,UG Gdańsk,105,99.30,-140,140,-150,140,100,110,115,115,155,165,170,170,425,29,Raw,SBD,Open,
M,Wiktor Pięta,UŚ Katowice,105,99.70,130,140,150,150,90,100,105,105,120,130,145,145,400,30,Raw,SBD,Open,
M,Filip Lewczyk,UMCS Lublin,105,94.80,80,,,80,110,115,-120,115,-90,90,120,120,315,31,Raw,SBD,Open,
M,Konrad Klimas,PWSZ Nysa,105,103.10,207.5,217.5,-225,217.5,120,125,130,130,207.5,217.5,225,225,572.5,19,Raw,SBD,Open,
M,Karol Łazicki,UMe Łódź,105,103.80,,,,,,,,,,,,,,DQ,Raw,SBD,Open,
M,Szymon Kozłowski,WSB Poznań,105,104.20,215,-222.5,222.5,222.5,-145,-145,-145,,220,230,-237.5,230,,DQ,Raw,SBD,Open,
M,Tomasz Domański,PG Gdańsk,120,107.70,255,265,275,275,180,190,195,195,280,300,-307.5,300,770,1,Raw,SBD,Open,
M,Dawid Perenc,PŚ Gliwice,120,113.60,250,260,270,270,160,170,175,175,300,315,-327.5,315,760,2,Raw,SBD,Open,
M,Jędrzej Żukowski,UMe Łódź,120,115.30,260,270,-275,270,155,160,165,165,275,290,-300,290,725,3,Raw,SBD,Open,
M,Bartłomiej Sieradzki,PP Poznań,120,107.40,225,240,250,250,150,160,170,170,230,255,285,285,705,4,Raw,SBD,Open,
M,Paweł Kawalerski,WAT Warszawa,120,119.00,250,260,-270,260,165,170,175,175,240,250,260,260,695,5,Raw,SBD,Open,
M,Krzysztof Stangret,WAT Warszawa,120,112.90,220,230,235,235,150,-160,160,160,245,260,-265,260,655,6,Raw,SBD,Open,
M,Sebastian Bojewski,PG Gdańsk,120,117.30,215,225,235,235,145,155,-165,155,245,257.5,-265,257.5,647.5,7,Raw,SBD,Open,
M,Patryk Naumowicz,PB Białystok,120,105.50,220,230,240,240,160,167.5,-172.5,167.5,200,215,225,225,632.5,8,Raw,SBD,Open,
M,Ryszard Bieniek,UPr Poznań,120,110.40,-200,200,-215,200,135,-140,-140,135,-230,240,260,260,595,9,Raw,SBD,Open,
M,Hubert Przybył,PUSS Piła,120,108.00,180,190,200,200,120,135,-142.5,135,210,225,235,235,570,10,Raw,SBD,Open,
M,Krzysztof Waszczuk,PB Białystok,120,110.50,185,200,205,205,110,-120,125,125,200,210,230,230,560,11,Raw,SBD,Open,
M,Jacek Jurga,PP Poznań,120+,126.50,255,265,-275,265,167.5,172.5,177.5,177.5,240,260,-275,260,702.5,3,Raw,SBD,Open,
M,Piotr Konkol,PG Gdańsk,120+,120.10,250,260,270,270,175,180,185,185,310,-325,-325,310,765,1,Raw,SBD,Open,
M,Łukasz Nizio,UAM Poznań,120+,121.40,240,260,270,270,185,192.5,-197.5,192.5,280,-295,-305,280,742.5,2,Raw,SBD,Open,
M,Krzysztof Sauter,UMe Łódź,120+,148.60,230,240,250,250,180,185,-187.5,185,240,260,-275,260,695,4,Raw,SBD,Open,
M,Maciej Juchimiuk,UMCS Lublin,120+,131.50,210,225,232.5,232.5,145,150,-155,150,240,257.5,267.5,267.5,650,5,Raw,SBD,Open,
M,Andrzej Tenus,PŚ Gliwice,120+,124.00,220,230,-240,230,150,155,160,160,200,220,-232.5,220,610,6,Raw,SBD,Open,
M,Bartosz Posert,UAM Poznań,120+,120.20,202.5,215,222.5,222.5,112.5,120,125,125,215,227.5,-232.5,227.5,575,7,Raw,SBD,Open,
