Division,WeightClassKg,Place,Name,Team,BodyweightKg,Best3SquatKg,Best3BenchKg,Best3DeadliftKg,TotalKg,Equipment,Event,Sex
Boys,51.71,1,Robert Parra,Carrollton Creekview,51.07,122.47,65.77,145.15,333.39,Single-ply,SBD,M
Boys,51.71,2,Logan Police,Frisco Wakeland,51.66,122.47,68.04,133.81,324.32,Single-ply,SBD,M
Boys,51.71,3,Johnson Simsoboone,Lewisville The Colony,48.9,72.57,45.36,90.72,208.65,Single-ply,SBD,M
Boys,55.79,1,Toni Ogunsola,Frisco,54.93,172.37,86.18,158.76,417.3,Single-ply,SBD,M
Boys,55.79,2,Andrew Wilson,Frisco Wakeland,55.25,145.15,77.11,142.88,365.14,Single-ply,SBD,M
Boys,55.79,3,Nico Barlis,Frisco Centennial,55.66,99.79,61.23,124.74,285.76,Single-ply,SBD,M
Boys,55.79,4,Tanner Laycock,Frisco Centennial,52.98,104.33,52.16,97.52,254.01,Single-ply,SBD,M
Boys,55.79,5,Hanish Masani,Lewisville The Colony,53.89,77.11,45.36,124.74,247.21,Single-ply,SBD,M
Boys,55.79,6,Tyler Dritschler,Prosper,52.89,92.99,47.63,77.11,217.72,Single-ply,SBD,M
Boys,59.87,1,Demitri Sommer,Lewisville The Colony,59.1,190.51,88.45,174.63,453.59,Single-ply,SBD,M
Boys,67.13,2,Michael Robason,Frisco Wakeland,59.92,195.04,88.45,167.83,451.32,Single-ply,SBD,M
Boys,59.87,3,Carl Harvey,Frisco Centennial,58.97,99.79,79.38,129.27,308.44,Single-ply,SBD,M
Boys,59.87,DQ,Deiontay Cornelius,Frisco Lone Star,59.33,,,,,Single-ply,SBD,M
Boys,67.13,1,Pat White,Lewisville The Colony,65.95,195.04,97.52,204.12,496.68,Single-ply,SBD,M
Boys,67.13,2,Nick Baril,Frisco Centennial,65.45,188.24,108.86,172.37,469.47,Single-ply,SBD,M
Boys,67.13,3,Aurelio Rommo,Carrollton Creekview,66.32,158.76,102.06,181.44,442.25,Single-ply,SBD,M
Boys,67.13,4,Austin Fugina,Frisco Centennial,65.82,163.29,90.72,167.83,421.84,Single-ply,SBD,M
Boys,67.13,5,Brady Adams,Frisco Wakeland,66.13,158.76,104.33,158.76,421.84,Single-ply,SBD,M
Boys,67.13,6,Jeremy Meyers,Frisco Wakeland,64.77,151.95,83.91,156.49,392.36,Single-ply,SBD,M
Boys,67.13,7,Chase Stout,Frisco Liberty,62.46,151.95,79.38,147.42,378.75,Single-ply,SBD,M
Boys,67.13,8,Landon Smith,Frisco Wakeland,64.36,140.61,88.45,127.01,356.07,Single-ply,SBD,M
Boys,67.13,DQ,Alex Skutnik,Frisco,62.82,,,,,Single-ply,SBD,M
Boys,67.13,DQ,Mason Castaldo,Frisco Heritage,60.33,102.06,,,,Single-ply,SBD,M
Boys,74.84,1,Trevor Wilson,Frisco Centennial,74.16,188.24,115.67,208.65,512.56,Single-ply,SBD,M
Boys,74.84,2,Malcom Fredrick,Carrollton Creekview,72.94,190.51,95.25,190.51,476.27,Single-ply,SBD,M
Boys,74.84,3,Logan Miller,Frisco Centennial,73.89,172.37,111.13,176.9,460.4,Single-ply,SBD,M
Boys,74.84,4,Tommy Eaton,Frisco Lone Star,68.22,156.49,102.06,183.7,442.25,Single-ply,SBD,M
Boys,74.84,5,Lane Curry,Lewisville The Colony,73.21,158.76,106.59,176.9,442.25,Single-ply,SBD,M
Boys,74.84,6,Darryl Finch,Carrollton Creekview,69.72,154.22,92.99,181.44,428.64,Single-ply,SBD,M
Boys,74.84,7,Nic Richards,Frisco Lone Star,74.12,158.76,86.18,181.44,426.38,Single-ply,SBD,M
Boys,74.84,8,Q Houston,Prosper,72.94,170.1,102.06,149.69,421.84,Single-ply,SBD,M
Boys,74.84,9,Tristian Price,Carrollton Creekview,73.84,165.56,81.65,167.83,415.04,Single-ply,SBD,M
Boys,74.84,10,Wade Woodard,Prosper,71.58,142.88,111.13,136.08,390.09,Single-ply,SBD,M
Boys,74.84,11,Jared Bowker,Frisco Centennial,72.44,158.76,86.18,142.88,387.82,Single-ply,SBD,M
Boys,74.84,12,Parker Perret,Frisco Liberty,71.71,136.08,81.65,156.49,374.21,Single-ply,SBD,M
Boys,74.84,13,Noel Sithole,Prosper,70.76,113.4,65.77,149.69,328.85,Single-ply,SBD,M
Boys,74.84,14,Austin Kessler,Prosper,68.99,79.38,56.7,70.31,206.38,Single-ply,SBD,M
Boys,74.84,DQ,Jake LoGrasso,Frisco Heritage,74.03,106.59,,,,Single-ply,SBD,M
Boys,74.84,DQ,DeVaughn Harris,Frisco Heritage,69.58,165.56,,,,Single-ply,SBD,M
Boys,74.84,DQ,Brad Over,Frisco Lone Star,72.3,181.44,,,,Single-ply,SBD,M
Boys,74.84,DQ,Ali Sheikh,Frisco Centennial,69.35,170.1,,,,Single-ply,SBD,M
Boys,82.1,1,Collin Charles,Frisco Heritage,81.19,256.28,156.49,267.62,680.39,Single-ply,SBD,M
Boys,82.1,2,Frank Perdomo,Lewisville The Colony,81.06,208.65,127.01,226.8,562.45,Single-ply,SBD,M
Boys,82.1,3,Alex Marr,Frisco Wakeland,81.24,176.9,129.27,204.12,510.29,Single-ply,SBD,M
Boys,82.1,4,Marcus Bradford,Frisco Liberty,79.61,120.2,136.08,188.24,444.52,Single-ply,SBD,M
Boys,82.1,5,David Koenig,Frisco Lone Star,76.25,156.49,99.79,167.83,424.11,Single-ply,SBD,M
Boys,82.1,6,Grant Kassing,Frisco,80.38,136.08,90.72,154.22,381.02,Single-ply,SBD,M
Boys,82.1,7,Logan Saenz,Frisco,81.96,131.54,95.25,149.69,376.48,Single-ply,SBD,M
Boys,82.1,DQ,Hayden Pierce,Frisco Heritage,81.1,136.08,90.72,,,Single-ply,SBD,M
Boys,82.1,DQ,Robert Merryfield,Frisco Heritage,76.93,138.35,90.72,,,Single-ply,SBD,M
Boys,89.81,1,Myles Benning,Lewisville The Colony,89.27,183.7,113.4,185.97,483.08,Single-ply,SBD,M
Boys,89.81,2,Phillip Hinajosa,Carrollton Creekview,89.13,199.58,86.18,174.63,460.4,Single-ply,SBD,M
Boys,89.81,3,Sefrie Roybal,Frisco Liberty,89.68,149.69,111.13,163.29,424.11,Single-ply,SBD,M
Boys,89.81,4,Chase Brackens,Frisco Heritage,89.54,158.76,97.52,151.95,408.23,Single-ply,SBD,M
Boys,89.81,5,Dorrian Ogas,Frisco Liberty,86.73,124.74,83.91,151.95,360.61,Single-ply,SBD,M
Boys,89.81,6,Donovan Hubbard,Frisco,86.09,147.42,65.77,142.88,356.07,Single-ply,SBD,M
Boys,89.81,7,Michael Carpin,Frisco Heritage,85.28,127.01,90.72,92.99,310.71,Single-ply,SBD,M
Boys,89.81,8,David Long #3,Lewisville The Colony,88.99,104.33,70.31,117.93,292.57,Single-ply,SBD,M
Boys,89.81,DQ,Rene Reyna,Frisco,85.77,115.67,,,,Single-ply,SBD,M
Boys,89.81,DQ,Nic Hintz,Frisco Heritage,83.73,172.37,,,,Single-ply,SBD,M
Boys,89.81,DQ,Marcus Haskins,Prosper,86.45,149.69,,,,Single-ply,SBD,M
Boys,109.77,1,Tyler Carver,Frisco Wakeland,99.93,231.33,161.03,215.46,607.81,Single-ply,SBD,M
Boys,99.79,2,Chris Robinson #6,Frisco,97.75,195.04,117.93,192.78,505.76,Single-ply,SBD,M
Boys,99.79,3,Victor Bezak,Lewisville The Colony,99.16,199.58,113.4,192.78,505.76,Single-ply,SBD,M
Boys,99.79,4,Travis Wendt,Frisco Liberty,97.66,170.1,136.08,181.44,487.61,Single-ply,SBD,M
Boys,99.79,5,Trey Salinas,Prosper,96.75,174.63,122.47,181.44,478.54,Single-ply,SBD,M
Boys,109.77,6,Darius Bell,Frisco Heritage,99.88,158.76,97.52,188.24,444.52,Single-ply,SBD,M
Boys,99.79,7,Tommy Kagener,Frisco Liberty,95.75,149.69,120.2,170.1,439.98,Single-ply,SBD,M
Boys,99.79,8,Mario Cardenas,Carrollton Creekview,93.98,165.56,104.33,158.76,428.64,Single-ply,SBD,M
Boys,99.79,9,Lucas Reynolds #1,Frisco,96.71,165.56,95.25,138.35,399.16,Single-ply,SBD,M
Boys,99.79,DQ,Gio Ortiz,Frisco Liberty,92.76,124.74,,,,Single-ply,SBD,M
Boys,109.77,1,Isaiah Hinton,Lewisville The Colony,103.74,297.1,174.63,274.42,746.16,Single-ply,SBD,M
Boys,109.77,2,Ryan Cantrell,Frisco Centennial,109.68,217.72,158.76,226.8,603.28,Single-ply,SBD,M
Boys,109.77,3,Fritz Hull,Prosper,103.69,217.72,145.15,201.85,564.72,Single-ply,SBD,M
Boys,109.77,4,Jeff Forst,Frisco Heritage,109.36,204.12,102.06,213.19,519.36,Single-ply,SBD,M
Boys,124.74,5,Ahmon Mayes,Prosper,109.91,183.7,115.67,215.46,514.83,Single-ply,SBD,M
Boys,109.77,6,Cole Bryant,Frisco Liberty,102.19,190.51,129.27,181.44,501.22,Single-ply,SBD,M
Boys,109.77,7,Cameron Hendricks,Frisco Wakeland,109.18,206.38,111.13,181.44,498.95,Single-ply,SBD,M
Boys,109.77,8,John Donaghey,Carrollton Creekview,109.09,192.78,120.2,176.9,489.88,Single-ply,SBD,M
Boys,109.77,9,Tyler McDonald,Frisco Centennial,102.92,192.78,108.86,174.63,476.27,Single-ply,SBD,M
Boys,109.77,10,Tim Womble,Frisco Heritage,106.78,136.08,102.06,176.9,415.04,Single-ply,SBD,M
Boys,109.77,11,Ryian Coleman,Frisco,104.19,158.76,68.04,163.29,390.09,Single-ply,SBD,M
Boys,109.77,12,Jaxon Williams,Frisco Heritage,104.6,133.81,88.45,165.56,387.82,Single-ply,SBD,M
Boys,109.77,13,Davis Shatto,Frisco Heritage,100.7,115.67,102.06,138.35,356.07,Single-ply,SBD,M
Boys,124.74,1,Bijzon Brown,Lewisville The Colony,110.27,204.12,142.88,185.97,532.97,Single-ply,SBD,M
Boys,124.74,2,Nick Natour,Frisco Lone Star,118.61,181.44,138.35,179.17,498.95,Single-ply,SBD,M
Boys,124.74,3,Chris Bennett,Lewisville The Colony,122.33,204.12,102.06,167.83,474,Single-ply,SBD,M
Boys,124.74,4,Don Ton,Frisco,119.48,170.1,122.47,163.29,455.86,Single-ply,SBD,M
Boys,124.74,5,Caleb Sellers,Frisco Wakeland,118.21,163.29,106.59,151.95,421.84,Single-ply,SBD,M
Boys,124.74,6,Alec Jamar,Frisco Liberty,111.49,136.08,102.06,149.69,387.82,Single-ply,SBD,M
Boys,124.74,DQ,Jordan Noriega,Frisco,121.38,192.78,,,,Single-ply,SBD,M
Boys,124.74,DQ,Trace Ellison,Frisco Centennial,122.33,185.97,,,,Single-ply,SBD,M
Boys,124.74,DQ,Colin Yang,Frisco Heritage,112.04,163.29,,,,Single-ply,SBD,M
Boys,124.74+,1,Dominic Cabrera,Frisco Wakeland,130.45,283.5,138.35,208.65,630.49,Single-ply,SBD,M
Boys,124.74+,2,David Shin,Lewisville The Colony,127.28,204.12,138.35,213.19,555.65,Single-ply,SBD,M
Boys,124.74+,3,Jaxon Loving,Prosper,129.32,161.03,108.86,181.44,451.32,Single-ply,SBD,M
Boys,124.74+,4,Jerry Kha,Carrollton Creekview,146.87,199.58,77.11,154.22,430.91,Single-ply,SBD,M
