﻿BDFPF B.K. DEADLIFT UNEQUIPPED 2011
DEADLIFT  UNEQUIPPED
                                                                                                                          1é      2é      3é      4       points
1                                     - 58,5 KG Wuyts                Helen          V    Gilberts Gym   19   T3   58,3    140     152,5   160             141,01
1                                     - 80 KG Janssens               Shakira    V   Planet Fitness      18   T3   77,1    95      105     115     130,5   81,351
1                                     60 KG Bruneel                  Angelo     M   Isogym              17   T2   58,7    120     130     140     145     116,42
1                                     67,5 KG Van Gucht              Maikel     M   Power lebbeke       15   T1   65,1    155     160     160             116,3
1                                     67,5 KG De Vissher             Geovanni   M   Power Lebbeke       17   T2   64,2    175     190     200             144,44
2                                     67,5 KG Cuylle                 Angelo     M   Isogym              17   T2   64,6    155     165     170             124,69
1                                     67,5 KG Callemeyn              Johny      M   Fit 4 fun           57   M4   66,7    140     151                     110,79
1                                     75 KG Eeckhout                 Laurens        M    Patton Team    15   T1   70,3    145     160     170     175     119,09
1                                     75 KG Peeters                  Alan           M    Gilberts Gym   17   T2   72,7    160     180     200             122,62
2                                     75 KG Bartels                  Thijs      M   Power Lebbeke       16   T2   74,2    165     165     175     180,5   117,27
1                                     75 KG Lefebvre                 Jonas      M   KBBC                19   T3   74,3    160     175     180     182,5   120,49
1                                     75 KG Sudarminto               Indra      M   Planet Fitness      20   JR   74,8    230     240     245             159,82
2                                     75 KG Slachmuylders            Bjorn      M   Planet Fitness      22   JR   69,8    180     192,5   -200            135,67
1                                     75 KG Hallewaert               Bart       M   Isogym              42   M1   75,0    217,5   227,5   235     240     156,16
1                                     82,5 KG Velghe                 Jonas      M   Isogym              18   T3   81,6    155     160     162,5           99,856
1                                     82,5 KG Polianskii             Vlad       M   Planet Fitness      20   JR   80,3    135     147,5   160             100,99
1                                     82,5 KG Goethals               Dries      M   KBBC                25   SR   81,6    150     175     200             109,22
1                                     90 KG Wouters                  Sammy          M      Fit 4 Fun    22   JR   87,6    150     160     165             95,232
1                                     90 KG Verbeke                  Beny       M   Isogym              45   M2   86,8    275     290     290     305,5   173,59
1                                     90 KG Theyssens                Martin     M   Patton Team         71   M7   88,5    135     147,5   160             87,232
1                                     100 KG Petiliion               Enzo       M   Isogym              18   T3   96,7    120     135     150             84,405
1                                     100 KG Laguesse                Alain      M   Carstors            36   SR   93,0    270,5   277,5   277,5           155,38
1                                     110 KG VannieuwenhuysMathieu              M   Isogym              19   T3   109,7   205     215     230,5           115,41
1                                     110 KG Vermote                 Gianni     M   Isogym              38   SR   108,4   235     250     262,5   281     141,36
2                                     110 KG Dewitte                 Stijn      M   KBCC                28   SR   103,9   180     200     200             98,226
1                                     110 KG Van Hove                Gilbert    M   Castors             60   M5   109,2   160     180     195             104,81
1                                     125 KG Dechamps                Jerome     M   Castors             23   JR   121,7   260     270     280,5   285     147,35
1                                     125 KG Goovaerts               Marc       M   Patton Team         53   M3   123,2   210     225     245             128,26
BR
ER
WR
BEST LIFTER
DRUGTEST
14 - 05 - 2011 Stekene
