Division,WeightClassKg,Place,Name,Team,BodyweightKg,Best3SquatKg,Best3BenchKg,Best3DeadliftKg,TotalKg,Equipment,Event,Sex
Boys,51.71,1,Angel Bermudez,Poteet,50.62,161.03,99.79,158.76,419.57,Single-ply,SBD,M
Boys,51.71,2,Jose Hernandez #3,Karnes City,50.44,127.01,83.91,133.81,344.73,Single-ply,SBD,M
Boys,51.71,3,Austin Schlemper,Universal City Randolph,51.53,115.67,61.23,127.01,303.91,Single-ply,SBD,M
Boys,51.71,4,Caleb Vera,Poteet,46.18,102.06,54.43,115.67,272.16,Single-ply,SBD,M
Boys,55.79,1,Raul Guerra,Poteet,54.98,138.35,90.72,147.42,376.48,Single-ply,SBD,M
Boys,55.79,2,Johnny Jimenez,Stockdale,54.25,129.27,77.11,149.69,356.07,Single-ply,SBD,M
Boys,55.79,3,Joe Anthony Oliva,Poteet,54.7,97.52,52.16,127.01,276.69,Single-ply,SBD,M
Boys,55.79,DQ,Jacob Salinas,Kenedy,55.79,,,,,Single-ply,SBD,M
Boys,55.79,DQ,Tyrese Martinez,Stockdale,52.62,127.01,70.31,,,Single-ply,SBD,M
Boys,59.87,1,Ricky Guerra,Poteet,58.79,199.58,127.01,208.65,535.24,Single-ply,SBD,M
Boys,59.87,2,Parth Patel,Kenedy,58.15,183.7,102.06,199.58,485.34,Single-ply,SBD,M
Boys,59.87,3,Victor Monsevais,Kenedy,58.97,158.76,77.11,181.44,417.3,Single-ply,SBD,M
Boys,59.87,4,Kris Imhof,San Antonio Cole,58.69,151.95,86.18,174.63,412.77,Single-ply,SBD,M
Boys,59.87,5,Rigo Franco,Poth,58.79,145.15,102.06,161.03,408.23,Single-ply,SBD,M
Boys,59.87,6,Anthony Perez,San Antonio Cole,57.42,142.88,88.45,151.95,383.29,Single-ply,SBD,M
Boys,59.87,7,Thomas Rodriguez,Poth,58.33,133.81,99.79,149.69,383.29,Single-ply,SBD,M
Boys,59.87,8,Wesley Lover,Karnes City,58.88,142.88,81.65,151.95,376.48,Single-ply,SBD,M
Boys,59.87,9,Josh Rangel,Stockdale,58.97,131.54,70.31,145.15,347,Single-ply,SBD,M
Boys,67.13,10,Ari Lopez,Karnes City,59.96,108.86,79.38,140.61,328.85,Single-ply,SBD,M
Boys,59.87,11,Jeremy Ramirez,Kenedy,59.87,106.59,61.23,127.01,294.84,Single-ply,SBD,M
Boys,59.87,12,Jaron Denson,Karnes City,58.69,113.4,56.7,113.4,283.5,Single-ply,SBD,M
Boys,67.13,1,Alan Johns,Poth,65.86,172.37,127.01,176.9,476.27,Single-ply,SBD,M
Boys,67.13,2,Jadran Ramirez,Kenedy,65.5,172.37,90.72,208.65,471.74,Single-ply,SBD,M
Boys,67.13,3,Devin McMahan,Stockdale,63.28,149.69,97.52,167.83,415.04,Single-ply,SBD,M
Boys,67.13,4,Ty Burson,Karnes City,62.14,138.35,72.57,165.56,376.48,Single-ply,SBD,M
Boys,67.13,5,Austin Fouch,Stockdale,66.59,142.88,83.91,145.15,371.95,Single-ply,SBD,M
Boys,67.13,6,Aaron Janek,Stockdale,66.68,127.01,74.84,161.03,362.87,Single-ply,SBD,M
Boys,74.84,7,Will Serna,Poth,67.22,142.88,92.99,127.01,362.87,Single-ply,SBD,M
Boys,67.13,8,Joaquin Munoz,Stockdale,60.78,124.74,79.38,156.49,360.61,Single-ply,SBD,M
Boys,67.13,9,James Meyer,Poth,64.41,140.61,74.84,145.15,360.61,Single-ply,SBD,M
Boys,67.13,10,Damon Hermosa,Kenedy,61.69,122.47,77.11,149.69,349.27,Single-ply,SBD,M
Boys,67.13,11,Noah Rodriguez,Kenedy,65.32,120.2,79.38,149.69,349.27,Single-ply,SBD,M
Boys,67.13,12,Alex Gill,Universal City Randolph,65.41,136.08,74.84,129.27,340.19,Single-ply,SBD,M
Boys,67.13,13,Enrique Duque,Stockdale,66.41,102.06,68.04,145.15,315.25,Single-ply,SBD,M
Boys,67.13,DQ,Isaiah Sandoval,Poteet,65.86,122.47,,,,Single-ply,SBD,M
Boys,67.13,DQ,Andrew Aguero,Kenedy,67.13,,,,,Single-ply,SBD,M
Boys,67.13,DQ,Zach Trujillo,Universal City Randolph,67.13,,,,,Single-ply,SBD,M
Boys,74.84,1,Miguel Rivera,Universal City Randolph,68.67,172.37,95.25,195.04,462.66,Single-ply,SBD,M
Boys,74.84,2,Darrien Jones,San Antonio Cole,73.03,165.56,86.18,172.37,424.11,Single-ply,SBD,M
Boys,74.84,3,Alec Oilar,San Antonio Cole,70.31,142.88,79.38,145.15,367.41,Single-ply,SBD,M
Boys,74.84,4,Kyler McBlane,Stockdale,72.48,140.61,70.31,147.42,358.34,Single-ply,SBD,M
Boys,74.84,DQ,Will Schaub,Poth,74.84,,,,,Single-ply,SBD,M
Boys,74.84,DQ,Jamison Smolka,Poth,74.84,,,,,Single-ply,SBD,M
Boys,82.1,1,Francisco Martinez,Poteet,76.93,188.24,136.08,183.7,508.02,Single-ply,SBD,M
Boys,82.1,2,Andres Moncada,Karnes City,80.65,192.78,102.06,195.04,489.88,Single-ply,SBD,M
Boys,82.1,3,Kyle Jiral,Poth,78.38,174.63,97.52,176.9,449.06,Single-ply,SBD,M
Boys,82.1,4,Clayton Jaskinia,Poth,75.48,176.9,106.59,149.69,433.18,Single-ply,SBD,M
Boys,82.1,5,Mayan Holmes,Universal City Randolph,80.1,142.88,68.04,151.95,362.87,Single-ply,SBD,M
Boys,82.1,6,Matt Swanson,Universal City Randolph,81.65,124.74,61.23,136.08,322.05,Single-ply,SBD,M
Boys,82.1,7,Coleton Galbreath,Runge,75.84,111.13,70.31,124.74,306.17,Single-ply,SBD,M
Boys,89.81,1,Ryan Farrell,Universal City Randolph,88.99,226.8,136.08,215.46,578.33,Single-ply,SBD,M
Boys,89.81,2,Nicolas Casanova,Karnes City,88.18,195.04,111.13,215.46,521.63,Single-ply,SBD,M
Boys,89.81,3,Anthony Bennett,Stockdale,88.36,188.24,124.74,185.97,498.95,Single-ply,SBD,M
Boys,89.81,4,Cole Brust,Universal City Randolph,84.37,170.1,111.13,174.63,455.86,Single-ply,SBD,M
Boys,89.81,5,Zach Reeves,San Antonio Cole,84.37,167.83,104.33,172.37,444.52,Single-ply,SBD,M
Boys,89.81,6,Nick Calderone,San Antonio Cole,83.01,163.29,115.67,154.22,433.18,Single-ply,SBD,M
Boys,99.79,7,Michael Rios,Runge,89.9,151.95,92.99,156.49,401.43,Single-ply,SBD,M
Boys,89.81,8,Garrison Moczygemba,Karnes City,89.45,131.54,92.99,151.95,376.48,Single-ply,SBD,M
Boys,89.81,9,Isaiah Jolivette,Universal City Randolph,87.18,113.4,86.18,147.42,347,Single-ply,SBD,M
Boys,89.81,10,Caleb Ceaser,Universal City Randolph,83.73,113.4,79.38,151.95,344.73,Single-ply,SBD,M
Boys,89.81,11,Matthew Leal,Karnes City,89.09,111.13,65.77,136.08,312.98,Single-ply,SBD,M
Boys,99.79,1,Freddy Larry,Universal City Randolph,95.71,208.65,117.93,226.8,553.38,Single-ply,SBD,M
Boys,99.79,2,Aaron Lopez,Karnes City,95.16,208.65,136.08,197.31,542.04,Single-ply,SBD,M
Boys,99.79,3,Tyler Crisp,Poteet,90.45,226.8,104.33,204.12,535.24,Single-ply,SBD,M
Boys,99.79,4,Bryce Sandoval,Poteet,98.07,204.12,124.74,197.31,526.17,Single-ply,SBD,M
Boys,99.79,5,Eli Alexander,Karnes City,95.07,181.44,111.13,190.51,483.08,Single-ply,SBD,M
Boys,99.79,6,Tyler Mamere,San Antonio Cole,96.25,172.37,120.2,185.97,478.54,Single-ply,SBD,M
Boys,109.77,7,Brandon Nunez,Runge,99.97,111.13,74.84,145.15,331.12,Single-ply,SBD,M
Boys,99.79,DQ,Josh Garcia #2,Runge,98.16,163.29,,,,Single-ply,SBD,M
Boys,99.79,DQ,Bernard Aguilar,Poteet,95.35,190.51,83.91,,,Single-ply,SBD,M
Boys,99.79,DQ,Bryan London,Universal City Randolph,99.79,,,,,Single-ply,SBD,M
Boys,99.79,DQ,Cody Kuhl,Universal City Randolph,99.79,,,,,Single-ply,SBD,M
Boys,109.77,1,Kolby Janek,Poth,107.32,254.01,174.63,235.87,664.51,Single-ply,SBD,M
Boys,109.77,2,Abraham Mayo,San Antonio Cole,105.6,165.56,120.2,172.37,458.13,Single-ply,SBD,M
Boys,109.77,3,Kyle Kellner,Karnes City,105.78,145.15,102.06,170.1,417.3,Single-ply,SBD,M
Boys,124.74,1,Joshua Carroll,Stockdale,119.11,215.46,165.56,251.74,632.76,Single-ply,SBD,M
Boys,124.74,2,Michael Diaz,Stockdale,114.94,217.72,133.81,215.46,566.99,Single-ply,SBD,M
Boys,124.74,3,Hector Garcia,Poteet,116.39,217.72,106.59,176.9,501.22,Single-ply,SBD,M
Boys,124.74,4,Joshua Leal,Karnes City,119.02,181.44,115.67,199.58,496.68,Single-ply,SBD,M
Boys,124.74,5,Hunter Hackney,Runge,120.2,142.88,92.99,181.44,417.3,Single-ply,SBD,M
Boys,124.74,DQ,Jonah Masters,San Antonio Cole,124.74,,,,,Single-ply,SBD,M
Boys,124.74,DQ,Bryant Tiemann,Kenedy,124.74,,,,,Single-ply,SBD,M
Boys,124.74+,1,Trent Enriquez,Karnes City,138.07,274.42,179.17,247.21,700.8,Single-ply,SBD,M
Boys,124.74+,2,James Cooksey,Kenedy,139.53,244.94,122.47,256.28,623.69,Single-ply,SBD,M
Boys,124.74+,3,Ronnie Lucio,Poteet,143.06,254.01,124.74,204.12,582.87,Single-ply,SBD,M
Boys,124.74+,4,Michael Balderas,Poteet,125.19,272.16,106.59,201.85,580.6,Single-ply,SBD,M
Boys,124.74+,5,Martin Hidrago,Stockdale,130.82,229.06,124.74,210.92,564.72,Single-ply,SBD,M
Boys,124.74+,6,Pedro Guerra,Runge,129.46,170.1,92.99,192.78,455.86,Single-ply,SBD,M
